%!PS-Adobe-2.0 EPSF-2.0
%%Title: fig4.eps
%%Creator: fig2dev Version 3.2 Patchlevel 3d
%%CreationDate: $FreeBSD: 7a5684f26a7155df7a2cf1ed22d0e07c49398533 $
%%For: phk@critter.freebsd.dk (Poul-Henning Kamp)
%%BoundingBox: 0 0 119 203
%%Magnification: 1.0000
%%EndComments
/$F2psDict 200 dict def
$F2psDict begin
$F2psDict /mtrx matrix put
/col-1 {0 setgray} bind def
/col0 {0.000 0.000 0.000 srgb} bind def
/col1 {0.000 0.000 1.000 srgb} bind def
/col2 {0.000 1.000 0.000 srgb} bind def
/col3 {0.000 1.000 1.000 srgb} bind def
/col4 {1.000 0.000 0.000 srgb} bind def
/col5 {1.000 0.000 1.000 srgb} bind def
/col6 {1.000 1.000 0.000 srgb} bind def
/col7 {1.000 1.000 1.000 srgb} bind def
/col8 {0.000 0.000 0.560 srgb} bind def
/col9 {0.000 0.000 0.690 srgb} bind def
/col10 {0.000 0.000 0.820 srgb} bind def
/col11 {0.530 0.810 1.000 srgb} bind def
/col12 {0.000 0.560 0.000 srgb} bind def
/col13 {0.000 0.690 0.000 srgb} bind def
/col14 {0.000 0.820 0.000 srgb} bind def
/col15 {0.000 0.560 0.560 srgb} bind def
/col16 {0.000 0.690 0.690 srgb} bind def
/col17 {0.000 0.820 0.820 srgb} bind def
/col18 {0.560 0.000 0.000 srgb} bind def
/col19 {0.690 0.000 0.000 srgb} bind def
/col20 {0.820 0.000 0.000 srgb} bind def
/col21 {0.560 0.000 0.560 srgb} bind def
/col22 {0.690 0.000 0.690 srgb} bind def
/col23 {0.820 0.000 0.820 srgb} bind def
/col24 {0.500 0.190 0.000 srgb} bind def
/col25 {0.630 0.250 0.000 srgb} bind def
/col26 {0.750 0.380 0.000 srgb} bind def
/col27 {1.000 0.500 0.500 srgb} bind def
/col28 {1.000 0.630 0.630 srgb} bind def
/col29 {1.000 0.750 0.750 srgb} bind def
/col30 {1.000 0.880 0.880 srgb} bind def
/col31 {1.000 0.840 0.000 srgb} bind def

end
save
newpath 0 203 moveto 0 0 lineto 119 0 lineto 119 203 lineto closepath clip newpath
-8.3 207.7 translate
1 -1 scale

/cp {closepath} bind def
/ef {eofill} bind def
/gr {grestore} bind def
/gs {gsave} bind def
/sa {save} bind def
/rs {restore} bind def
/l {lineto} bind def
/m {moveto} bind def
/rm {rmoveto} bind def
/n {newpath} bind def
/s {stroke} bind def
/sh {show} bind def
/slc {setlinecap} bind def
/slj {setlinejoin} bind def
/slw {setlinewidth} bind def
/srgb {setrgbcolor} bind def
/rot {rotate} bind def
/sc {scale} bind def
/sd {setdash} bind def
/ff {findfont} bind def
/sf {setfont} bind def
/scf {scalefont} bind def
/sw {stringwidth} bind def
/tr {translate} bind def
/tnt {dup dup currentrgbcolor
  4 -2 roll dup 1 exch sub 3 -1 roll mul add
  4 -2 roll dup 1 exch sub 3 -1 roll mul add
  4 -2 roll dup 1 exch sub 3 -1 roll mul add srgb}
  bind def
/shd {dup dup currentrgbcolor 4 -2 roll mul 4 -2 roll mul
  4 -2 roll mul srgb} bind def
/$F2psBegin {$F2psDict begin /$F2psEnteredState save def} def
/$F2psEnd {$F2psEnteredState restore end} def

$F2psBegin
10 setmiterlimit
 0.06000 0.06000 sc
%
% Fig objects follow
%
/Times-Roman ff 180.00 scf sf
300 450 m
gs 1 -1 sc (*volatile timehands;) col0 sh gr
% Polyline
7.500 slw
n 1005 750 m 900 750 900 1095 105 arcto 4 {pop} repeat
  900 1200 1245 1200 105 arcto 4 {pop} repeat
  1350 1200 1350 855 105 arcto 4 {pop} repeat
  1350 750 1005 750 105 arcto 4 {pop} repeat
 cp gs col0 s gr 
% Polyline
n 1755 750 m 1650 750 1650 1095 105 arcto 4 {pop} repeat
  1650 1200 1995 1200 105 arcto 4 {pop} repeat
  2100 1200 2100 855 105 arcto 4 {pop} repeat
  2100 750 1755 750 105 arcto 4 {pop} repeat
 cp gs col0 s gr 
% Polyline
n 1755 1500 m 1650 1500 1650 1845 105 arcto 4 {pop} repeat
  1650 1950 1995 1950 105 arcto 4 {pop} repeat
  2100 1950 2100 1605 105 arcto 4 {pop} repeat
  2100 1500 1755 1500 105 arcto 4 {pop} repeat
 cp gs col0 s gr 
% Polyline
n 1755 2250 m 1650 2250 1650 2595 105 arcto 4 {pop} repeat
  1650 2700 1995 2700 105 arcto 4 {pop} repeat
  2100 2700 2100 2355 105 arcto 4 {pop} repeat
  2100 2250 1755 2250 105 arcto 4 {pop} repeat
 cp gs col0 s gr 
% Polyline
n 1755 3000 m 1650 3000 1650 3345 105 arcto 4 {pop} repeat
  1650 3450 1995 3450 105 arcto 4 {pop} repeat
  2100 3450 2100 3105 105 arcto 4 {pop} repeat
  2100 3000 1755 3000 105 arcto 4 {pop} repeat
 cp gs col0 s gr 
% Polyline
n 1005 3000 m 900 3000 900 3345 105 arcto 4 {pop} repeat
  900 3450 1245 3450 105 arcto 4 {pop} repeat
  1350 3450 1350 3105 105 arcto 4 {pop} repeat
  1350 3000 1005 3000 105 arcto 4 {pop} repeat
 cp gs col0 s gr 
% Polyline
n 255 3000 m 150 3000 150 3345 105 arcto 4 {pop} repeat
  150 3450 495 3450 105 arcto 4 {pop} repeat
  600 3450 600 3105 105 arcto 4 {pop} repeat
  600 3000 255 3000 105 arcto 4 {pop} repeat
 cp gs col0 s gr 
% Polyline
n 255 2250 m 150 2250 150 2595 105 arcto 4 {pop} repeat
  150 2700 495 2700 105 arcto 4 {pop} repeat
  600 2700 600 2355 105 arcto 4 {pop} repeat
  600 2250 255 2250 105 arcto 4 {pop} repeat
 cp gs col0 s gr 
% Polyline
n 255 1500 m 150 1500 150 1845 105 arcto 4 {pop} repeat
  150 1950 495 1950 105 arcto 4 {pop} repeat
  600 1950 600 1605 105 arcto 4 {pop} repeat
  600 1500 255 1500 105 arcto 4 {pop} repeat
 cp gs col0 s gr 
% Polyline
gs  clippath
915 1005 m 915 945 l 763 945 l 883 975 l 763 1005 l cp
eoclip
n 600 975 m
 900 975 l gs col0 s gr gr

% arrowhead
n 763 1005 m 883 975 l 763 945 l  col0 s
% Polyline
gs  clippath
1665 1005 m 1665 945 l 1513 945 l 1633 975 l 1513 1005 l cp
eoclip
n 1350 975 m
 1650 975 l gs col0 s gr gr

% arrowhead
n 1513 1005 m 1633 975 l 1513 945 l  col0 s
% Polyline
gs  clippath
1845 1515 m 1905 1515 l 1905 1363 l 1875 1483 l 1845 1363 l cp
eoclip
n 1875 1200 m
 1875 1500 l gs col0 s gr gr

% arrowhead
n 1845 1363 m 1875 1483 l 1905 1363 l  col0 s
% Polyline
gs  clippath
1845 2265 m 1905 2265 l 1905 2113 l 1875 2233 l 1845 2113 l cp
eoclip
n 1875 1950 m
 1875 2250 l gs col0 s gr gr

% arrowhead
n 1845 2113 m 1875 2233 l 1905 2113 l  col0 s
% Polyline
gs  clippath
1845 3015 m 1905 3015 l 1905 2863 l 1875 2983 l 1845 2863 l cp
eoclip
n 1875 2700 m
 1875 3000 l gs col0 s gr gr

% arrowhead
n 1845 2863 m 1875 2983 l 1905 2863 l  col0 s
% Polyline
gs  clippath
1335 3195 m 1335 3255 l 1487 3255 l 1367 3225 l 1487 3195 l cp
eoclip
n 1650 3225 m
 1350 3225 l gs col0 s gr gr

% arrowhead
n 1487 3195 m 1367 3225 l 1487 3255 l  col0 s
% Polyline
gs  clippath
585 3195 m 585 3255 l 737 3255 l 617 3225 l 737 3195 l cp
eoclip
n 900 3225 m
 600 3225 l gs col0 s gr gr

% arrowhead
n 737 3195 m 617 3225 l 737 3255 l  col0 s
% Polyline
gs  clippath
405 2685 m 345 2685 l 345 2837 l 375 2717 l 405 2837 l cp
eoclip
n 375 3000 m
 375 2700 l gs col0 s gr gr

% arrowhead
n 405 2837 m 375 2717 l 345 2837 l  col0 s
% Polyline
gs  clippath
405 1935 m 345 1935 l 345 2087 l 375 1967 l 405 2087 l cp
eoclip
n 375 2250 m
 375 1950 l gs col0 s gr gr

% arrowhead
n 405 2087 m 375 1967 l 345 2087 l  col0 s
% Polyline
gs  clippath
405 1185 m 345 1185 l 345 1337 l 375 1217 l 405 1337 l cp
eoclip
n 375 1500 m
 375 1200 l gs col0 s gr gr

% arrowhead
n 405 1337 m 375 1217 l 345 1337 l  col0 s
% Polyline
gs  clippath
1845 765 m 1905 765 l 1905 613 l 1875 733 l 1845 613 l cp
eoclip
n 1800 375 m 1875 375 l
 1875 750 l gs col0 s gr gr

% arrowhead
n 1845 613 m 1875 733 l 1905 613 l  col0 s
/Times-Roman ff 180.00 scf sf
150 225 m
gs 1 -1 sc (struct timehands) col0 sh gr
% Polyline
n 255 750 m 150 750 150 1095 105 arcto 4 {pop} repeat
  150 1200 495 1200 105 arcto 4 {pop} repeat
  600 1200 600 855 105 arcto 4 {pop} repeat
  600 750 255 750 105 arcto 4 {pop} repeat
 cp gs col0 s gr 
$F2psEnd
rs
