%!PS-Adobe-2.0 EPSF-2.0
%%Title: beastie.eps
%%Creator: fig2dev Version 3.2.3 Patchlevel 
%%CreationDate: Sat Mar  3 15:57:53 2001
%%For: $FreeBSD: 587fe508c36bb3c280c657cbf16bb474fc1fda47 $
%%BoundingBox: 0 0 384 417
%%Magnification: 1.0000
%%EndComments
/$F2psDict 200 dict def
$F2psDict begin

% This controls the linethickness.  I think large posters look better if
% you use a value of 2.  Small daemons looks better with a value of 1.
/linethickness 1 def

% If you want to fiddle the colors:
% col0  below is black (the lines)
% col3  below is cyan (the shoelaces)
% col7  below is white (eyes, shoes)
% col13 below is green (the shooes)
% col20 below is red (the daemon)
% col31 below is gold (the pitchfork)

% This sets round ends on the lines, this looks better than sharp edges
% but I have not found a way to convince xfig to do this.
1 setlinecap

$F2psDict /mtrx matrix put
/col-1 {0 setgray} bind def
/col0 {0.000 0.000 0.000 srgb} bind def
/col1 {0.000 0.000 1.000 srgb} bind def
/col2 {0.000 1.000 0.000 srgb} bind def
/col3 {0.000 1.000 1.000 srgb} bind def
/col4 {1.000 0.000 0.000 srgb} bind def
/col5 {1.000 0.000 1.000 srgb} bind def
/col6 {1.000 1.000 0.000 srgb} bind def
/col7 {1.000 1.000 1.000 srgb} bind def
/col8 {0.000 0.000 0.560 srgb} bind def
/col9 {0.000 0.000 0.690 srgb} bind def
/col10 {0.000 0.000 0.820 srgb} bind def
/col11 {0.530 0.810 1.000 srgb} bind def
/col12 {0.000 0.560 0.000 srgb} bind def
/col13 {0.000 0.690 0.000 srgb} bind def
/col14 {0.000 0.820 0.000 srgb} bind def
/col15 {0.000 0.560 0.560 srgb} bind def
/col16 {0.000 0.690 0.690 srgb} bind def
/col17 {0.000 0.820 0.820 srgb} bind def
/col18 {0.560 0.000 0.000 srgb} bind def
/col19 {0.690 0.000 0.000 srgb} bind def
/col20 {0.820 0.000 0.000 srgb} bind def
/col21 {0.560 0.000 0.560 srgb} bind def
/col22 {0.690 0.000 0.690 srgb} bind def
/col23 {0.820 0.000 0.820 srgb} bind def
/col24 {0.500 0.190 0.000 srgb} bind def
/col25 {0.630 0.250 0.000 srgb} bind def
/col26 {0.750 0.380 0.000 srgb} bind def
/col27 {1.000 0.500 0.500 srgb} bind def
/col28 {1.000 0.630 0.630 srgb} bind def
/col29 {1.000 0.750 0.750 srgb} bind def
/col30 {1.000 0.880 0.880 srgb} bind def
/col31 {1.000 0.840 0.000 srgb} bind def

end
save
newpath 0 417 moveto 0 0 lineto 384 0 lineto 384 417 lineto closepath clip newpath
-51.0 455.0 translate
1 -1 scale

/cp {closepath} bind def
/ef {eofill} bind def
/gr {grestore} bind def
/gs {gsave} bind def
/sa {save} bind def
/rs {restore} bind def
/l {lineto} bind def
/m {moveto} bind def
/rm {rmoveto} bind def
/n {newpath} bind def
/s {stroke} bind def
/sh {show} bind def
/slc {setlinecap} bind def
/slj {setlinejoin} bind def
/slw {linethickness mul setlinewidth} bind def
/srgb {setrgbcolor} bind def
/rot {rotate} bind def
/sc {scale} bind def
/sd {setdash} bind def
/ff {findfont} bind def
/sf {setfont} bind def
/scf {scalefont} bind def
/sw {stringwidth} bind def
/tr {translate} bind def
/tnt {dup dup currentrgbcolor
  4 -2 roll dup 1 exch sub 3 -1 roll mul add
  4 -2 roll dup 1 exch sub 3 -1 roll mul add
  4 -2 roll dup 1 exch sub 3 -1 roll mul add srgb}
  bind def
/shd {dup dup currentrgbcolor 4 -2 roll mul 4 -2 roll mul
  4 -2 roll mul srgb} bind def
 /DrawEllipse {
	/endangle exch def
	/startangle exch def
	/yrad exch def
	/xrad exch def
	/y exch def
	/x exch def
	/savematrix mtrx currentmatrix def
	x y tr xrad yrad sc 0 0 1 startangle endangle arc
	closepath
	savematrix setmatrix
	} def

/$F2psBegin {$F2psDict begin /$F2psEnteredState save def} def
/$F2psEnd {$F2psEnteredState restore end} def

$F2psBegin
%%Page: 1 1
10 setmiterlimit
 0.06000 0.06000 sc
% Polyline
30.000 slw
n 2174 2967 m 2179 2956 l 2183 2946 l 2189 2935 l 2195 2923 l 2202 2911 l
 2210 2898 l 2219 2886 l 2227 2873 l 2236 2861 l 2246 2848 l
 2254 2839 l 2262 2829 l 2270 2818 l 2280 2807 l 2289 2795 l
 2299 2783 l 2309 2770 l 2319 2756 l 2329 2743 l 2338 2730 l
 2347 2718 l 2355 2705 l 2362 2693 l 2369 2681 l 2374 2669 l
 2380 2657 l 2385 2644 l 2390 2631 l 2394 2617 l 2399 2603 l
 2403 2588 l 2406 2573 l 2410 2558 l 2414 2543 l 2417 2528 l
 2420 2513 l 2423 2498 l 2427 2484 l 2430 2469 l 2434 2453 l
 2439 2436 l 2443 2419 l 2448 2401 l 2452 2383 l 2457 2365 l
 2461 2347 l 2466 2329 l 2470 2313 l 2473 2297 l 2476 2282 l
 2479 2269 l 2481 2256 l 2483 2240 l 2485 2224 l 2485 2209 l
 2485 2194 l 2485 2180 l 2483 2167 l 2482 2155 l 2480 2143 l
 2478 2132 l 2476 2122 l 2474 2113 l 2472 2104 l 2470 2094 l
 2468 2083 l 2466 2071 l 2463 2059 l 2461 2046 l 2458 2032 l
 2456 2019 l 2453 2005 l 2450 1990 l 2448 1975 l 2445 1962 l
 2442 1947 l 2439 1932 l 2437 1916 l 2433 1898 l 2430 1880 l
 2427 1862 l 2424 1844 l 2421 1826 l 2419 1808 l 2416 1791 l
 2414 1775 l 2412 1760 l 2411 1746 l 2409 1730 l 2408 1715 l
 2407 1699 l 2406 1684 l 2406 1668 l 2407 1653 l 2408 1638 l
 2409 1624 l 2410 1610 l 2412 1597 l 2415 1584 l 2418 1571 l
 2421 1559 l 2424 1545 l 2428 1532 l 2432 1517 l 2437 1503 l
 2442 1489 l 2446 1475 l 2451 1462 l 2455 1450 l 2459 1439 l
 2463 1429 l 2466 1420 l 2469 1411 l 2472 1403 l 2475 1395 l
 2479 1386 l 2483 1378 l 2489 1369 l 2495 1359 l 2502 1349 l
 2511 1338 l 2521 1325 l 2529 1316 l 2537 1306 l 2546 1295 l
 2556 1283 l 2568 1270 l 2580 1255 l 2593 1241 l 2607 1225 l
 2621 1209 l 2636 1193 l 2651 1178 l 2665 1162 l 2680 1147 l
 2694 1132 l 2709 1117 l 2723 1103 l 2735 1091 l 2748 1078 l
 2762 1066 l 2775 1053 l 2789 1041 l 2804 1028 l 2819 1015 l
 2834 1002 l 2849 989 l 2864 976 l 2879 964 l 2894 951 l
 2909 940 l 2924 929 l 2938 918 l 2951 908 l 2964 898 l
 2978 889 l 2992 878 l 3008 868 l 3023 857 l 3039 847 l
 3055 836 l 3071 826 l 3088 815 l 3104 805 l 3121 795 l
 3136 786 l 3152 777 l 3167 768 l 3181 760 l 3194 753 l
 3207 746 l 3219 740 l 3234 731 l 3250 724 l 3265 716 l
 3281 709 l 3296 703 l 3311 697 l 3325 692 l 3339 688 l
 3351 685 l 3363 683 l 3374 682 l 3384 682 l 3393 683 l
 3402 684 l 3412 687 l 3420 690 l 3429 694 l 3436 698 l
 3443 703 l 3448 709 l 3453 715 l 3456 720 l 3457 726 l
 3458 732 l 3457 738 l 3455 745 l 3450 753 l 3444 761 l
 3437 770 l 3429 779 l 3419 788 l 3410 797 l 3400 805 l
 3391 815 l 3382 822 l 3374 831 l 3365 840 l 3355 850 l
 3345 860 l 3335 871 l 3325 882 l 3315 893 l 3305 904 l
 3296 915 l 3287 925 l 3278 936 l 3269 946 l 3260 957 l
 3251 969 l 3242 981 l 3232 993 l 3223 1005 l 3214 1017 l
 3205 1029 l 3197 1040 l 3189 1050 l 3182 1060 l 3176 1069 l
 3168 1080 l 3161 1090 l 3154 1100 l 3148 1110 l 3141 1120 l
 3136 1130 l 3131 1139 l 3126 1148 l 3123 1156 l 3120 1164 l
 3116 1174 l 3113 1185 l 3111 1196 l 3109 1209 l 3108 1221 l
 3107 1233 l 3106 1245 l 3106 1257 l 3106 1268 l 3107 1281 l
 3107 1294 l 3109 1308 l 3110 1321 l 3112 1334 l 3114 1345 l
 3117 1356 l 3120 1365 l 3124 1375 l 3128 1383 l 3133 1392 l
 3139 1399 l 3145 1405 l 3152 1410 l 3159 1414 l 3166 1416 l
 3175 1418 l 3185 1419 l 3196 1418 l 3208 1416 l 3221 1414 l
 3234 1410 l 3248 1405 l 3258 1401 l 3268 1397 l 3280 1392 l
 3292 1387 l 3305 1381 l 3319 1375 l 3334 1368 l 3348 1362 l
 3363 1356 l 3378 1350 l 3392 1344 l 3407 1339 l 3419 1334 l
 3432 1329 l 3446 1325 l 3461 1320 l 3476 1316 l 3492 1311 l
 3509 1307 l 3525 1303 l 3542 1299 l 3559 1296 l 3575 1292 l
 3591 1289 l 3607 1287 l 3622 1285 l 3638 1282 l 3654 1280 l
 3671 1279 l 3688 1277 l 3707 1275 l 3726 1274 l 3745 1273 l
 3764 1272 l 3784 1272 l 3803 1271 l 3822 1271 l 3840 1272 l
 3858 1272 l 3875 1273 l 3890 1273 l 3906 1274 l 3923 1275 l
 3940 1277 l 3958 1278 l 3976 1281 l 3996 1283 l 4016 1286 l
 4036 1289 l 4057 1293 l 4078 1297 l 4099 1301 l 4120 1306 l
 4141 1311 l 4162 1317 l 4183 1323 l 4201 1328 l 4219 1333 l
 4238 1339 l 4257 1345 l 4278 1352 l 4299 1359 l 4320 1366 l
 4342 1374 l 4364 1383 l 4386 1391 l 4408 1400 l 4430 1409 l
 4451 1417 l 4472 1426 l 4491 1435 l 4510 1443 l 4528 1452 l
 4545 1460 l 4561 1468 l 4576 1476 l 4596 1487 l 4616 1499 l
 4634 1511 l 4652 1523 l 4669 1535 l 4686 1547 l 4701 1560 l
 4715 1572 l 4728 1583 l 4740 1594 l 4751 1604 l 4760 1614 l
 4769 1623 l 4777 1631 l 4787 1642 l 4797 1653 l 4807 1663 l
 4817 1672 l 4827 1681 l 4836 1689 l 4846 1696 l 4855 1701 l
 4864 1705 l 4874 1709 l 4882 1711 l 4891 1712 l 4902 1713 l
 4913 1713 l 4925 1712 l 4938 1710 l 4952 1708 l 4966 1705 l
 4981 1701 l 4996 1697 l 5011 1692 l 5026 1686 l 5040 1681 l
 5055 1675 l 5070 1668 l 5086 1661 l 5103 1653 l 5120 1644 l
 5136 1636 l 5153 1627 l 5169 1618 l 5184 1609 l 5198 1601 l
 5210 1593 l 5221 1585 l 5231 1578 l 5241 1570 l 5250 1562 l
 5258 1553 l 5264 1545 l 5270 1536 l 5274 1526 l 5278 1516 l
 5280 1505 l 5282 1494 l 5283 1483 l 5284 1471 l 5284 1459 l
 5285 1447 l 5285 1434 l 5284 1420 l 5284 1405 l 5283 1388 l
 5282 1371 l 5281 1353 l 5279 1335 l 5277 1316 l 5274 1298 l
 5271 1280 l 5267 1263 l 5263 1246 l 5259 1230 l 5254 1214 l
 5248 1198 l 5241 1181 l 5234 1165 l 5227 1148 l 5219 1131 l
 5210 1115 l 5202 1098 l 5193 1083 l 5185 1069 l 5178 1055 l
 5170 1043 l 5164 1031 l 5158 1021 l 5150 1007 l 5143 993 l
 5136 981 l 5131 969 l 5126 957 l 5123 947 l 5121 938 l
 5120 929 l 5121 922 l 5122 916 l 5125 910 l 5129 905 l
 5135 899 l 5141 894 l 5149 890 l 5158 886 l 5167 883 l
 5177 880 l 5187 879 l 5197 878 l 5208 877 l 5219 877 l
 5232 878 l 5245 880 l 5259 883 l 5273 887 l 5287 891 l
 5300 896 l 5314 902 l 5326 908 l 5335 913 l 5345 918 l
 5354 925 l 5365 932 l 5375 940 l 5386 949 l 5398 958 l
 5410 969 l 5422 980 l 5434 992 l 5446 1004 l 5458 1016 l
 5470 1030 l 5482 1044 l 5492 1055 l 5502 1067 l 5513 1080 l
 5524 1093 l 5536 1108 l 5548 1123 l 5560 1139 l 5573 1155 l
 5585 1172 l 5598 1189 l 5610 1206 l 5622 1223 l 5633 1240 l
 5644 1256 l 5654 1272 l 5663 1287 l 5673 1302 l 5681 1317 l
 5690 1333 l 5699 1349 l 5707 1365 l 5715 1382 l 5723 1399 l
 5730 1416 l 5737 1434 l 5744 1451 l 5750 1468 l 5756 1485 l
 5762 1502 l 5767 1518 l 5771 1534 l 5776 1549 l 5780 1563 l
 5783 1578 l 5787 1592 l 5790 1607 l 5794 1622 l 5797 1637 l
 5800 1653 l 5804 1670 l 5806 1687 l 5809 1704 l 5811 1721 l
 5813 1738 l 5815 1754 l 5816 1771 l 5817 1786 l 5817 1802 l
 5817 1817 l 5816 1832 l 5815 1847 l 5814 1862 l 5812 1877 l
 5810 1893 l 5807 1910 l 5803 1928 l 5799 1945 l 5794 1964 l
 5788 1982 l 5782 2000 l 5775 2019 l 5768 2037 l 5760 2055 l
 5752 2072 l 5744 2089 l 5735 2107 l 5726 2122 l 5717 2138 l
 5707 2155 l 5697 2172 l 5686 2190 l 5674 2208 l 5661 2227 l
 5647 2245 l 5634 2264 l 5619 2283 l 5605 2302 l 5590 2320 l
 5576 2338 l 5561 2355 l 5547 2371 l 5532 2387 l 5518 2402 l
 5504 2417 l 5490 2431 l 5475 2445 l 5460 2458 l 5445 2472 l
 5429 2486 l 5412 2500 l 5396 2514 l 5379 2527 l 5362 2540 l
 5346 2553 l 5330 2566 l 5314 2577 l 5299 2589 l 5284 2599 l
 5270 2609 l 5257 2618 l 5245 2627 l 5233 2636 l 5216 2648 l
 5199 2659 l 5183 2671 l 5168 2681 l 5153 2692 l 5139 2701 l
 5126 2710 l 5115 2718 l 5105 2724 l 5097 2730 l 5090 2734 l
 5085 2737 l 5081 2739 l 5078 2741 l 5075 2743 l 5073 2744 l
 5072 2746 l 5071 2747 l 5070 2750 l 5070 2753 l 5070 2756 l
 5071 2761 l 5071 2766 l 5072 2772 l 5073 2780 l 5073 2789 l
 5074 2798 l 5074 2809 l 5074 2821 l 5074 2834 l 5074 2849 l
 5074 2865 l 5073 2883 l 5073 2901 l 5072 2921 l 5070 2940 l
 5069 2960 l 5067 2979 l 5066 2999 l 5064 3018 l 5061 3036 l
 5059 3055 l 5056 3073 l 5053 3092 l 5050 3111 l 5046 3130 l
 5042 3150 l 5037 3170 l 5032 3190 l 5026 3211 l 5021 3231 l
 5015 3251 l 5008 3270 l 5002 3289 l 4996 3307 l 4989 3324 l
 4982 3340 l 4976 3356 l 4968 3372 l 4961 3387 l 4953 3403 l
 4944 3419 l 4935 3436 l 4925 3452 l 4915 3469 l 4904 3486 l
 4893 3503 l 4882 3519 l 4870 3535 l 4859 3550 l 4847 3565 l
 4835 3580 l 4823 3594 l 4812 3608 l 4799 3622 l 4786 3636 l
 4773 3650 l 4759 3665 l 4744 3680 l 4730 3695 l 4714 3710 l
 4699 3726 l 4684 3741 l 4670 3756 l 4656 3770 l 4643 3783 l
 4630 3796 l 4619 3808 l 4608 3819 l 4599 3830 l 4587 3843 l
 4576 3856 l 4565 3869 l 4556 3882 l 4547 3895 l 4539 3907 l
 4532 3919 l 4526 3930 l 4521 3941 l 4517 3951 l 4513 3961 l
 4510 3970 l 4506 3981 l 4503 3992 l 4501 4004 l 4498 4016 l
 4496 4029 l 4494 4042 l 4493 4054 l 4493 4066 l 4493 4078 l
 4493 4089 l 4493 4100 l 4494 4112 l 4496 4124 l 4498 4137 l
 4501 4150 l 4504 4164 l 4507 4177 l 4511 4189 l 4515 4200 l
 4520 4212 l 4525 4223 l 4530 4234 l 4537 4246 l 4543 4259 l
 4551 4272 l 4558 4284 l 4565 4297 l 4572 4309 l 4579 4320 l
 4585 4331 l 4591 4343 l 4597 4354 l 4603 4367 l 4609 4380 l
 4615 4394 l 4621 4408 l 4626 4422 l 4631 4436 l 4636 4450 l
 4640 4464 l 4643 4474 l 4646 4485 l 4649 4496 l 4652 4508 l
 4654 4521 l 4657 4534 l 4660 4549 l 4663 4563 l 4665 4579 l
 4667 4594 l 4669 4610 l 4671 4625 l 4673 4641 l 4675 4658 l
 4676 4672 l 4677 4688 l 4678 4704 l 4679 4721 l 4680 4739 l
 4681 4757 l 4682 4776 l 4682 4795 l 4683 4814 l 4683 4832 l
 4683 4851 l 4684 4868 l 4684 4884 l 4683 4900 l 4683 4915 l
 4683 4929 l 4682 4946 l 4682 4963 l 4681 4980 l 4679 4996 l
 4678 5012 l 4676 5028 l 4674 5043 l 4671 5056 l 4669 5069 l
 4666 5081 l 4663 5092 l 4661 5103 l 4657 5115 l 4652 5128 l
 4648 5141 l 4643 5154 l 4638 5168 l 4633 5181 l 4628 5194 l
 4624 5206 l 4621 5218 l 4618 5229 l 4616 5238 l 4615 5247 l
 4614 5257 l 4613 5268 l 4613 5280 l 4614 5292 l 4616 5305 l
 4618 5319 l 4620 5334 l 4624 5349 l 4628 5365 l 4632 5382 l
 4636 5395 l 4640 5410 l 4645 5425 l 4650 5442 l 4656 5460 l
 4663 5479 l 4670 5498 l 4677 5519 l 4685 5540 l 4693 5560 l
 4702 5581 l 4710 5602 l 4719 5621 l 4728 5641 l 4737 5660 l
 4746 5678 l 4754 5694 l 4762 5711 l 4771 5727 l 4780 5744 l
 4790 5762 l 4801 5779 l 4812 5797 l 4823 5814 l 4834 5832 l
 4846 5849 l 4859 5866 l 4871 5883 l 4883 5899 l 4895 5914 l
 4908 5929 l 4920 5943 l 4932 5957 l 4944 5970 l 4957 5983 l
 4970 5996 l 4984 6009 l 4998 6021 l 5013 6034 l 5028 6048 l
 5044 6061 l 5061 6074 l 5078 6087 l 5095 6099 l 5113 6112 l
 5130 6124 l 5147 6135 l 5164 6146 l 5181 6156 l 5198 6167 l
 5214 6176 l 5230 6186 l 5247 6195 l 5264 6204 l 5281 6213 l
 5299 6222 l 5318 6232 l 5337 6241 l 5357 6250 l 5378 6260 l
 5399 6269 l 5420 6278 l 5441 6287 l 5462 6295 l 5483 6303 l
 5503 6311 l 5523 6318 l 5543 6325 l 5563 6332 l 5582 6338 l
 5600 6344 l 5618 6350 l 5637 6355 l 5656 6361 l 5676 6366 l
 5697 6372 l 5718 6377 l 5740 6383 l 5762 6389 l 5785 6394 l
 5807 6400 l 5830 6405 l 5853 6410 l 5875 6416 l 5898 6421 l
 5919 6425 l 5941 6430 l 5962 6435 l 5983 6439 l 6004 6444 l
 6025 6448 l 6046 6453 l 6068 6457 l 6090 6462 l 6113 6467 l
 6136 6472 l 6160 6477 l 6185 6482 l 6209 6487 l 6233 6492 l
 6258 6497 l 6282 6502 l 6305 6507 l 6328 6512 l 6350 6517 l
 6371 6522 l 6391 6526 l 6411 6531 l 6430 6535 l 6448 6539 l
 6470 6544 l 6491 6549 l 6513 6555 l 6535 6560 l 6556 6565 l
 6578 6571 l 6599 6576 l 6620 6582 l 6640 6587 l 6659 6593 l
 6678 6598 l 6695 6603 l 6712 6608 l 6727 6613 l 6742 6618 l
 6756 6622 l 6772 6627 l 6788 6632 l 6803 6638 l 6819 6643 l
 6835 6649 l 6851 6655 l 6867 6662 l 6882 6668 l 6897 6674 l
 6912 6681 l 6925 6687 l 6938 6694 l 6951 6700 l 6963 6707 l
 6975 6713 l 6987 6721 l 7000 6728 l 7012 6736 l 7025 6745 l
 7038 6754 l 7051 6763 l 7063 6773 l 7075 6783 l 7086 6792 l
 7096 6802 l 7106 6811 l 7115 6820 l 7123 6829 l 7132 6840 l
 7140 6851 l 7148 6863 l 7156 6875 l 7163 6888 l 7170 6901 l
 7176 6914 l 7181 6927 l 7186 6940 l 7189 6951 l 7193 6963 l
 7196 6974 l 7198 6987 l 7200 7000 l 7202 7014 l 7203 7029 l
 7202 7043 l 7201 7058 l 7198 7072 l 7194 7086 l 7189 7099 l
 7183 7111 l 7177 7122 l 7170 7132 l 7162 7144 l 7153 7155 l
 7143 7167 l 7132 7179 l 7120 7190 l 7108 7201 l 7097 7211 l
 7085 7221 l 7074 7230 l 7063 7238 l 7054 7245 l 7044 7252 l
 7034 7258 l 7023 7265 l 7012 7271 l 6999 7277 l 6986 7284 l
 6973 7290 l 6958 7295 l 6943 7301 l 6928 7306 l 6912 7311 l
 6895 7316 l 6878 7321 l 6862 7325 l 6844 7330 l 6826 7334 l
 6806 7339 l 6786 7343 l 6764 7348 l 6742 7352 l 6720 7357 l
 6699 7361 l 6677 7366 l 6657 7370 l 6638 7373 l 6620 7377 l
 6604 7380 l 6589 7383 l 6576 7385 l 6560 7388 l 6546 7391 l
 6534 7393 l 6524 7396 l 6515 7398 l 6507 7400 l 6502 7403 l
 6498 7405 l 6495 7408 l 6493 7411 l 6493 7414 l 6493 7417 l
 6494 7425 l 6496 7436 l 6499 7448 l 6502 7460 l 6504 7471 l
 6504 7480 l 6502 7484 l 6500 7487 l 6497 7491 l 6491 7493 l
 6484 7495 l 6475 7497 l 6464 7499 l 6450 7500 l 6435 7500 l
 6418 7501 l 6408 7501 l 6396 7502 l 6384 7502 l 6370 7502 l
 6355 7502 l 6338 7503 l 6321 7503 l 6302 7503 l 6282 7504 l
 6262 7504 l 6241 7505 l 6219 7505 l 6198 7505 l 6176 7506 l
 6154 7506 l 6131 7507 l 6109 7507 l 6087 7508 l 6066 7509 l
 6044 7509 l 6022 7510 l 5999 7511 l 5975 7511 l 5951 7512 l
 5925 7513 l 5900 7514 l 5873 7515 l 5847 7516 l 5821 7517 l
 5795 7518 l 5770 7519 l 5745 7520 l 5722 7521 l 5699 7522 l
 5677 7523 l 5656 7524 l 5636 7525 l 5617 7526 l 5594 7527 l
 5571 7528 l 5549 7530 l 5528 7531 l 5506 7532 l 5485 7533 l
 5465 7535 l 5446 7536 l 5428 7537 l 5410 7538 l 5394 7539 l
 5380 7539 l 5367 7540 l 5355 7540 l 5344 7541 l 5334 7541 l
 5320 7541 l 5307 7541 l 5296 7540 l 5286 7539 l 5277 7538 l
 5270 7536 l 5266 7534 l 5262 7532 l 5261 7530 l 5260 7527 l
 5260 7525 l 5262 7522 l 5265 7518 l 5270 7514 l 5277 7508 l
 5286 7502 l 5298 7494 l 5313 7485 l 5330 7474 l 5350 7462 l
 5373 7449 l 5399 7435 l 5414 7426 l 5431 7417 l 5449 7407 l
 5468 7396 l 5488 7385 l 5510 7373 l 5533 7361 l 5556 7348 l
 5581 7334 l 5606 7321 l 5632 7306 l 5657 7292 l 5683 7278 l
 5708 7264 l 5733 7251 l 5758 7237 l 5781 7224 l 5804 7212 l
 5825 7200 l 5846 7189 l 5865 7178 l 5884 7168 l 5908 7154 l
 5932 7141 l 5954 7128 l 5975 7116 l 5996 7104 l 6016 7092 l
 6035 7081 l 6052 7071 l 6069 7061 l 6084 7052 l 6098 7043 l
 6111 7035 l 6122 7028 l 6133 7021 l 6142 7015 l 6151 7010 l
 6163 7001 l 6175 6993 l 6187 6985 l 6197 6977 l 6207 6971 l
 6217 6965 l 6225 6961 l 6232 6958 l 6238 6956 l 6244 6956 l
 6249 6956 l 6254 6957 l 6259 6960 l 6264 6964 l 6269 6968 l
 6274 6974 l 6279 6980 l 6284 6986 l 6288 6992 l 6293 6999 l
 6298 7007 l 6304 7016 l 6310 7026 l 6316 7036 l 6322 7046 l
 6328 7057 l 6333 7066 l 6338 7076 l 6342 7085 l 6346 7095 l
 6351 7105 l 6355 7115 l 6359 7125 l 6363 7134 l 6367 7142 l
 6370 7150 l 6373 7156 l 6377 7162 l 6381 7167 l 6386 7172 l
 6392 7177 l 6399 7182 l 6406 7185 l 6415 7188 l 6424 7190 l
 6435 7191 l 6444 7191 l 6455 7191 l 6467 7190 l 6481 7189 l
 6495 7187 l 6510 7185 l 6526 7183 l 6542 7180 l 6557 7177 l
 6572 7173 l 6586 7170 l 6599 7167 l 6613 7163 l 6626 7159 l
 6639 7155 l 6653 7151 l 6667 7146 l 6680 7141 l 6694 7136 l
 6706 7131 l 6719 7126 l 6730 7121 l 6741 7116 l 6752 7111 l
 6764 7104 l 6776 7098 l 6789 7090 l 6801 7083 l 6813 7075 l
 6825 7066 l 6835 7058 l 6844 7050 l 6851 7043 l 6857 7036 l
 6861 7030 l 6864 7024 l 6867 7017 l 6869 7010 l 6870 7004 l
 6870 6996 l 6869 6989 l 6867 6982 l 6865 6975 l 6862 6968 l
 6858 6961 l 6853 6954 l 6848 6947 l 6842 6939 l 6835 6931 l
 6826 6923 l 6817 6914 l 6807 6905 l 6796 6896 l 6784 6888 l
 6773 6879 l 6761 6871 l 6748 6864 l 6736 6857 l 6726 6852 l
 6716 6847 l 6705 6842 l 6694 6837 l 6681 6831 l 6667 6826 l
 6652 6821 l 6636 6816 l 6620 6811 l 6602 6806 l 6584 6801 l
 6565 6797 l 6546 6792 l 6526 6788 l 6506 6784 l 6485 6780 l
 6467 6777 l 6448 6774 l 6428 6770 l 6407 6767 l 6384 6764 l
 6361 6760 l 6337 6757 l 6312 6753 l 6286 6749 l 6259 6746 l
 6232 6742 l 6206 6738 l 6179 6735 l 6153 6731 l 6127 6728 l
 6102 6724 l 6078 6721 l 6054 6717 l 6031 6714 l 6009 6711 l
 5986 6707 l 5964 6704 l 5942 6700 l 5920 6696 l 5897 6693 l
 5874 6689 l 5851 6685 l 5828 6681 l 5805 6676 l 5783 6672 l
 5760 6668 l 5738 6664 l 5717 6660 l 5696 6655 l 5676 6651 l
 5657 6647 l 5639 6644 l 5622 6640 l 5605 6636 l 5588 6633 l
 5568 6628 l 5547 6623 l 5527 6619 l 5507 6614 l 5486 6609 l
 5465 6603 l 5444 6598 l 5423 6593 l 5402 6587 l 5382 6582 l
 5363 6577 l 5344 6571 l 5326 6566 l 5309 6561 l 5292 6557 l
 5276 6552 l 5260 6547 l 5243 6542 l 5227 6537 l 5210 6531 l
 5192 6526 l 5175 6520 l 5157 6514 l 5140 6508 l 5122 6502 l
 5105 6496 l 5089 6491 l 5073 6485 l 5058 6480 l 5044 6475 l
 5030 6470 l 5017 6465 l 5003 6460 l 4988 6454 l 4974 6449 l
 4959 6443 l 4944 6437 l 4929 6431 l 4915 6425 l 4900 6419 l
 4887 6413 l 4873 6407 l 4861 6401 l 4849 6395 l 4838 6389 l
 4827 6383 l 4814 6375 l 4801 6368 l 4788 6360 l 4775 6351 l
 4762 6342 l 4748 6333 l 4735 6324 l 4722 6315 l 4710 6306 l
 4698 6298 l 4687 6290 l 4676 6283 l 4666 6275 l 4655 6268 l
 4644 6260 l 4633 6252 l 4621 6244 l 4610 6236 l 4598 6227 l
 4587 6219 l 4577 6211 l 4566 6203 l 4557 6195 l 4547 6187 l
 4536 6177 l 4525 6167 l 4513 6156 l 4501 6145 l 4490 6133 l
 4478 6123 l 4467 6113 l 4457 6105 l 4448 6098 l 4440 6093 l
 4433 6089 l 4427 6086 l 4419 6085 l 4410 6084 l 4400 6086 l
 4388 6088 l 4373 6092 l 4356 6097 l 4337 6104 l 4316 6113 l
 4292 6122 l 4265 6133 l 4250 6139 l 4234 6146 l 4217 6153 l
 4198 6160 l 4179 6167 l 4158 6175 l 4136 6183 l 4112 6191 l
 4088 6199 l 4062 6207 l 4036 6215 l 4009 6223 l 3982 6230 l
 3954 6237 l 3926 6243 l 3897 6248 l 3869 6253 l 3841 6257 l
 3814 6261 l 3787 6263 l 3760 6265 l 3733 6265 l 3707 6265 l
 3681 6264 l 3655 6261 l 3629 6258 l 3603 6254 l 3577 6248 l
 3550 6242 l 3523 6235 l 3496 6227 l 3469 6218 l 3441 6208 l
 3414 6198 l 3387 6187 l 3361 6176 l 3335 6165 l 3310 6153 l
 3286 6141 l 3263 6130 l 3242 6118 l 3221 6107 l 3201 6096 l
 3183 6085 l 3166 6075 l 3151 6066 l 3136 6057 l 3123 6048 l
 3102 6035 l 3083 6022 l 3067 6011 l 3052 6000 l 3039 5990 l
 3028 5980 l 3019 5971 l 3010 5963 l 3003 5955 l 2997 5947 l
 2992 5939 l 2987 5932 l 2982 5924 l 2977 5916 l 2972 5907 l
 2966 5897 l 2959 5886 l 2952 5874 l 2944 5862 l 2936 5849 l
 2927 5835 l 2918 5821 l 2910 5807 l 2902 5793 l 2894 5780 l
 2886 5767 l 2879 5755 l 2873 5744 l 2865 5730 l 2858 5717 l
 2852 5704 l 2845 5690 l 2839 5676 l 2834 5663 l 2828 5649 l
 2824 5636 l 2820 5624 l 2816 5612 l 2813 5600 l 2811 5589 l
 2809 5578 l 2807 5566 l 2805 5554 l 2804 5541 l 2803 5528 l
 2802 5515 l 2801 5502 l 2801 5489 l 2801 5477 l 2801 5465 l
 2802 5454 l 2802 5444 l 2803 5431 l 2805 5418 l 2806 5406 l
 2808 5392 l 2810 5379 l 2813 5366 l 2816 5354 l 2819 5343 l
 2822 5332 l 2825 5322 l 2830 5309 l 2835 5297 l 2840 5284 l
 2846 5271 l 2852 5259 l 2857 5248 l 2862 5239 l 2866 5231 l
 2870 5221 l 2874 5212 l 2876 5205 l 2877 5197 l 2878 5191 l
 2877 5186 l 2875 5181 l 2872 5175 l 2867 5168 l 2862 5161 l
 2855 5154 l 2848 5146 l 2841 5139 l 2834 5131 l 2826 5122 l
 2817 5113 l 2809 5103 l 2802 5093 l 2795 5083 l 2789 5074 l
 2785 5064 l 2781 5054 l 2778 5043 l 2775 5032 l 2774 5022 l
 2773 5012 l 2773 5003 l 2774 4995 l 2774 4988 l 2776 4981 l
 2777 4974 l 2778 4968 l 2778 4962 l 2777 4957 l 2775 4953 l
 2772 4951 l 2766 4948 l 2756 4945 l 2745 4944 l 2732 4942 l
 2720 4941 l 2709 4940 l 2700 4938 l 2691 4936 l 2682 4933 l
 2675 4929 l 2668 4925 l 2663 4921 l 2658 4916 l 2652 4910 l
 2647 4904 l 2641 4898 l 2635 4892 l 2628 4888 l 2624 4885 l
 2620 4882 l 2614 4878 l 2607 4873 l 2599 4866 l 2589 4857 l
 2578 4846 l 2565 4832 l 2551 4816 l 2536 4796 l 2526 4784 l
 2516 4770 l 2505 4755 l 2493 4739 l 2481 4722 l 2469 4703 l
 2456 4683 l 2443 4663 l 2431 4643 l 2418 4622 l 2407 4601 l
 2396 4580 l 2386 4561 l 2377 4542 l 2369 4524 l 2363 4507 l
 2358 4491 l 2354 4476 l 2352 4463 l 2351 4451 l 2351 4439 l
 2352 4428 l 2354 4417 l 2357 4407 l 2361 4397 l 2366 4388 l
 2372 4379 l 2379 4370 l 2387 4362 l 2395 4355 l 2404 4348 l
 2414 4342 l 2424 4337 l 2434 4331 l 2445 4327 l 2455 4323 l
 2466 4319 l 2477 4315 l 2492 4311 l 2507 4307 l 2522 4304 l
 2539 4301 l 2556 4298 l 2574 4295 l 2592 4292 l 2611 4290 l
 2630 4288 l 2649 4287 l 2668 4285 l 2686 4284 l 2703 4284 l
 2720 4283 l 2736 4283 l 2752 4283 l 2769 4284 l 2787 4284 l
 2805 4285 l 2823 4286 l 2841 4287 l 2860 4289 l 2878 4291 l
 2895 4292 l 2912 4294 l 2928 4296 l 2943 4298 l 2957 4300 l
 2970 4302 l 2983 4304 l 2999 4306 l 3015 4308 l 3030 4311 l
 3046 4312 l 3061 4314 l 3075 4314 l 3088 4314 l 3099 4313 l
 3110 4311 l 3119 4308 l 3128 4304 l 3137 4299 l 3146 4292 l
 3155 4285 l 3163 4276 l 3170 4267 l 3177 4257 l 3183 4248 l
 3188 4238 l 3193 4229 l 3196 4219 l 3200 4209 l 3203 4199 l
 3205 4188 l 3207 4177 l 3208 4166 l 3208 4155 l 3208 4145 l
 3208 4135 l 3207 4126 l 3205 4114 l 3201 4102 l 3197 4090 l
 3192 4078 l 3186 4066 l 3179 4056 l 3172 4046 l 3165 4039 l
 3157 4031 l 3147 4025 l 3137 4019 l 3126 4013 l 3114 4007 l
 3102 4002 l 3091 3997 l 3081 3992 l 3072 3988 l 3063 3984 l
 3053 3979 l 3043 3974 l 3033 3969 l 3023 3963 l 3013 3957 l
 3003 3950 l 2993 3944 l 2984 3938 l 2975 3931 l 2965 3923 l
 2955 3915 l 2943 3906 l 2932 3897 l 2920 3888 l 2908 3879 l
 2896 3870 l 2885 3861 l 2873 3853 l 2863 3846 l 2853 3840 l
 2842 3833 l 2831 3826 l 2819 3818 l 2807 3811 l 2795 3804 l
 2783 3797 l 2771 3790 l 2761 3784 l 2751 3777 l 2741 3772 l
 2730 3764 l 2719 3757 l 2707 3750 l 2696 3743 l 2684 3735 l
 2672 3728 l 2660 3721 l 2649 3715 l 2638 3710 l 2627 3705 l
 2618 3701 l 2608 3697 l 2597 3693 l 2586 3689 l 2574 3685 l
 2562 3681 l 2550 3677 l 2537 3672 l 2525 3668 l 2513 3663 l
 2501 3659 l 2490 3654 l 2478 3649 l 2466 3643 l 2454 3636 l
 2441 3629 l 2428 3621 l 2414 3613 l 2401 3604 l 2388 3595 l
 2375 3585 l 2363 3576 l 2352 3567 l 2342 3557 l 2331 3547 l
 2321 3537 l 2311 3526 l 2300 3514 l 2290 3502 l 2280 3490 l
 2270 3477 l 2261 3465 l 2252 3454 l 2244 3443 l 2237 3433 l
 2231 3424 l 2223 3413 l 2216 3402 l 2209 3391 l 2202 3380 l
 2195 3368 l 2189 3357 l 2184 3346 l 2178 3335 l 2174 3325 l
 2170 3314 l 2166 3303 l 2162 3291 l 2158 3278 l 2154 3265 l
 2151 3251 l 2148 3237 l 2145 3223 l 2142 3211 l 2141 3199 l
 2139 3188 l 2138 3177 l 2137 3166 l 2136 3156 l 2136 3145 l
 2136 3133 l 2136 3122 l 2137 3112 l 2138 3101 l 2140 3092 l
 2141 3082 l 2143 3072 l 2145 3061 l 2148 3049 l 2151 3037 l
 2154 3025 l 2158 3012 l 2162 3000 l 2166 2988 l 2170 2977 l

 cp gs col20 1.00 shd ef gr gs col0 s gr 
% Polyline
n 2420 6449 m 2432 6448 l 2444 6448 l 2457 6447 l 2471 6446 l 2484 6446 l
 2498 6445 l 2511 6445 l 2524 6445 l 2536 6445 l 2548 6445 l
 2560 6444 l 2572 6444 l 2584 6444 l 2597 6444 l 2610 6444 l
 2623 6444 l 2635 6444 l 2647 6444 l 2658 6444 l 2669 6444 l
 2679 6443 l 2689 6443 l 2700 6443 l 2711 6442 l 2722 6441 l
 2733 6440 l 2743 6439 l 2752 6437 l 2761 6435 l 2770 6433 l
 2780 6429 l 2790 6424 l 2801 6419 l 2812 6413 l 2822 6407 l
 2833 6401 l 2843 6396 l 2854 6391 l 2864 6386 l 2875 6382 l
 2887 6377 l 2900 6372 l 2913 6368 l 2925 6364 l 2936 6360 l
 2947 6356 l 2957 6352 l 2967 6348 l 2977 6344 l 2987 6339 l
 2997 6335 l 3006 6330 l 3013 6326 l 3021 6323 l 3029 6318 l
 3037 6312 l 3045 6306 l 3051 6300 l 3056 6292 l 3060 6285 l
 3061 6278 l 3062 6270 l 3062 6261 l 3062 6251 l 3061 6241 l
 3059 6232 l 3057 6223 l 3055 6215 l 3052 6207 l 3049 6198 l
 3046 6190 l 3042 6181 l 3038 6173 l 3034 6164 l 3030 6156 l
 3027 6148 l 3023 6139 l 3019 6129 l 3015 6119 l 3011 6108 l
 3008 6096 l 3004 6086 l 3001 6075 l 2999 6066 l 2995 6054 l
 2992 6041 l 2990 6029 l 2989 6018 l 2989 6009 l 2990 6003 l
 2991 6000 l 2992 5998 l 2995 5996 l 2997 5994 l 3001 5994 l
 3004 5993 l 3008 5994 l 3012 5995 l 3017 5996 l 3021 5998 l
 3029 6001 l 3037 6006 l 3047 6012 l 3057 6018 l 3065 6025 l
 3073 6031 l 3080 6038 l 3088 6044 l 3095 6051 l 3103 6057 l
 3110 6062 l 3118 6065 l 3126 6066 l 3136 6066 l 3147 6065 l
 3158 6064 l 3169 6062 l 3180 6061 l 3188 6060 l 3197 6059 l
 3206 6059 l 3215 6059 l 3224 6059 l 3233 6059 l 3241 6060 l
 3249 6060 l 3258 6060 l 3268 6061 l 3279 6062 l 3289 6064 l
 3297 6066 l 3305 6068 l 3312 6071 l 3320 6075 l 3327 6081 l
 3335 6087 l 3342 6093 l 3348 6100 l 3355 6106 l 3362 6114 l
 3370 6122 l 3378 6129 l 3387 6134 l 3395 6138 l 3404 6140 l
 3413 6140 l 3424 6140 l 3434 6138 l 3443 6137 l 3452 6136 l
 3460 6135 l 3468 6134 l 3477 6135 l 3484 6137 l 3491 6139 l
 3496 6143 l 3501 6148 l 3505 6154 l 3510 6162 l 3514 6171 l
 3517 6180 l 3520 6189 l 3522 6196 l 3524 6204 l 3526 6212 l
 3528 6221 l 3530 6229 l 3532 6238 l 3533 6245 l 3534 6253 l
 3535 6262 l 3536 6271 l 3538 6279 l 3539 6285 l 3541 6288 l
 3543 6288 l 3545 6285 l 3548 6279 l 3552 6270 l 3556 6259 l
 3560 6247 l 3564 6236 l 3567 6227 l 3571 6218 l 3574 6208 l
 3578 6198 l 3582 6188 l 3586 6178 l 3590 6169 l 3594 6161 l
 3598 6152 l 3602 6143 l 3607 6134 l 3612 6126 l 3617 6117 l
 3623 6109 l 3628 6103 l 3634 6097 l 3639 6091 l 3646 6086 l
 3653 6081 l 3661 6076 l 3670 6072 l 3678 6069 l 3686 6066 l
 3694 6064 l 3701 6062 l 3710 6060 l 3719 6059 l 3728 6058 l
 3737 6057 l 3746 6057 l 3755 6057 l 3763 6058 l 3770 6058 l
 3778 6059 l 3787 6061 l 3795 6063 l 3804 6065 l 3812 6068 l
 3820 6070 l 3828 6074 l 3835 6077 l 3843 6081 l 3851 6086 l
 3860 6091 l 3869 6096 l 3877 6102 l 3885 6107 l 3893 6112 l
 3900 6117 l 3908 6123 l 3916 6129 l 3924 6135 l 3931 6141 l
 3938 6147 l 3944 6153 l 3950 6159 l 3956 6166 l 3962 6173 l
 3967 6179 l 3971 6184 l 3974 6188 l 3977 6189 l 3979 6187 l
 3981 6182 l 3983 6175 l 3986 6168 l 3989 6161 l 3992 6157 l
 3995 6154 l 3999 6151 l 4004 6148 l 4010 6146 l 4016 6144 l
 4023 6142 l 4030 6141 l 4038 6140 l 4046 6139 l 4056 6139 l
 4067 6138 l 4078 6138 l 4089 6138 l 4099 6137 l 4110 6137 l
 4120 6137 l 4131 6136 l 4142 6135 l 4154 6134 l 4166 6133 l
 4177 6132 l 4188 6130 l 4198 6128 l 4208 6126 l 4218 6123 l
 4229 6120 l 4240 6117 l 4251 6113 l 4261 6110 l 4271 6107 l
 4280 6104 l 4288 6101 l 4296 6098 l 4305 6095 l 4314 6091 l
 4323 6088 l 4332 6085 l 4340 6081 l 4348 6078 l 4356 6074 l
 4365 6071 l 4374 6067 l 4383 6064 l 4392 6062 l 4401 6062 l
 4409 6063 l 4416 6066 l 4423 6070 l 4429 6077 l 4436 6086 l
 4443 6097 l 4450 6109 l 4456 6122 l 4462 6134 l 4468 6147 l
 4473 6157 l 4478 6168 l 4483 6180 l 4489 6192 l 4495 6205 l
 4501 6218 l 4507 6231 l 4513 6243 l 4518 6255 l 4524 6267 l
 4528 6277 l 4533 6287 l 4537 6298 l 4542 6310 l 4548 6321 l
 4553 6334 l 4558 6346 l 4563 6358 l 4567 6370 l 4572 6381 l
 4576 6392 l 4580 6403 l 4584 6414 l 4588 6425 l 4592 6437 l
 4596 6449 l 4600 6461 l 4604 6474 l 4608 6486 l 4611 6498 l
 4615 6510 l 4618 6521 l 4622 6531 l 4625 6542 l 4629 6553 l
 4633 6565 l 4637 6578 l 4641 6590 l 4645 6602 l 4649 6614 l
 4653 6625 l 4657 6635 l 4660 6644 l 4663 6653 l 4665 6660 l
 4667 6668 l 4669 6675 l 4670 6682 l 4670 6690 l 4669 6698 l
 4667 6705 l 4663 6713 l 4659 6720 l 4653 6728 l 4647 6734 l
 4641 6740 l 4633 6747 l 4625 6755 l 4614 6763 l 4602 6771 l
 4589 6781 l 4574 6790 l 4558 6800 l 4540 6810 l 4522 6820 l
 4503 6831 l 4482 6841 l 4461 6852 l 4447 6858 l 4431 6866 l
 4415 6873 l 4398 6880 l 4380 6888 l 4361 6896 l 4341 6905 l
 4320 6913 l 4299 6922 l 4276 6931 l 4253 6940 l 4230 6949 l
 4206 6957 l 4183 6966 l 4159 6974 l 4136 6982 l 4112 6990 l
 4089 6997 l 4067 7004 l 4045 7011 l 4022 7018 l 4001 7024 l
 3979 7030 l 3956 7036 l 3934 7042 l 3910 7047 l 3887 7053 l
 3862 7058 l 3837 7063 l 3812 7068 l 3786 7073 l 3759 7078 l
 3732 7083 l 3705 7087 l 3679 7091 l 3652 7095 l 3625 7098 l
 3599 7102 l 3573 7105 l 3547 7107 l 3522 7110 l 3497 7112 l
 3473 7114 l 3448 7116 l 3425 7118 l 3402 7119 l 3378 7120 l
 3354 7121 l 3330 7122 l 3305 7123 l 3279 7124 l 3253 7125 l
 3226 7125 l 3199 7125 l 3172 7126 l 3146 7126 l 3119 7125 l
 3092 7125 l 3066 7125 l 3041 7124 l 3016 7123 l 2992 7123 l
 2969 7122 l 2947 7121 l 2925 7119 l 2904 7118 l 2884 7117 l
 2865 7115 l 2839 7113 l 2814 7110 l 2790 7107 l 2765 7104 l
 2741 7101 l 2717 7097 l 2693 7092 l 2669 7087 l 2646 7082 l
 2624 7077 l 2603 7071 l 2582 7065 l 2563 7058 l 2545 7051 l
 2527 7044 l 2511 7037 l 2496 7030 l 2481 7022 l 2467 7014 l
 2453 7005 l 2438 6996 l 2424 6986 l 2410 6975 l 2396 6964 l
 2382 6952 l 2368 6939 l 2354 6926 l 2340 6913 l 2326 6899 l
 2313 6885 l 2300 6872 l 2288 6858 l 2276 6844 l 2264 6831 l
 2252 6817 l 2241 6804 l 2228 6788 l 2215 6772 l 2202 6755 l
 2188 6738 l 2175 6721 l 2162 6703 l 2149 6685 l 2137 6667 l
 2127 6650 l 2117 6633 l 2109 6617 l 2102 6602 l 2098 6588 l
 2094 6575 l 2093 6564 l 2094 6553 l 2096 6542 l 2101 6532 l
 2108 6523 l 2118 6514 l 2129 6506 l 2142 6499 l 2157 6493 l
 2173 6487 l 2189 6482 l 2205 6478 l 2221 6475 l 2236 6472 l
 2251 6470 l 2265 6468 l 2280 6465 l 2295 6463 l 2310 6461 l
 2324 6459 l 2338 6457 l 2352 6456 l 2365 6454 l 2377 6453 l
 2389 6452 l 2400 6451 l 2410 6450 l
 cp gs col13 1.00 shd ef gr gs col0 s gr 
% Polyline
n 2452 4170 m 2451 4170 l 2448 4167 l 2439 4160 l 2424 4149 l 2405 4135 l
 2384 4118 l 2362 4102 l 2341 4086 l 2322 4071 l 2305 4059 l
 2290 4047 l 2277 4037 l 2265 4028 l 2254 4020 l 2242 4010 l
 2230 4000 l 2218 3991 l 2206 3981 l 2195 3972 l 2184 3963 l
 2174 3954 l 2164 3946 l 2155 3939 l 2147 3932 l 2140 3926 l
 2134 3920 l 2125 3912 l 2117 3905 l 2110 3897 l 2103 3891 l
 2098 3884 l 2093 3879 l 2090 3874 l 2088 3869 l 2087 3863 l
 2087 3858 l 2089 3852 l 2091 3846 l 2095 3840 l 2098 3834 l
 2102 3829 l 2107 3822 l 2112 3815 l 2117 3807 l 2122 3798 l
 2126 3790 l 2129 3784 l 2132 3776 l 2135 3768 l 2137 3760 l
 2140 3751 l 2142 3743 l 2144 3735 l 2146 3728 l 2147 3719 l
 2149 3710 l 2150 3700 l 2151 3689 l 2152 3679 l 2152 3669 l
 2152 3660 l 2152 3651 l 2152 3641 l 2151 3630 l 2151 3619 l
 2150 3609 l 2149 3598 l 2148 3589 l 2147 3579 l 2145 3570 l
 2143 3559 l 2140 3549 l 2138 3538 l 2135 3528 l 2132 3518 l
 2129 3508 l 2126 3499 l 2123 3489 l 2119 3478 l 2114 3466 l
 2109 3455 l 2104 3444 l 2098 3434 l 2091 3424 l 2086 3416 l
 2079 3408 l 2072 3400 l 2064 3392 l 2056 3384 l 2048 3376 l
 2040 3369 l 2032 3363 l 2025 3358 l 2018 3353 l 2010 3348 l
 2002 3344 l 1994 3340 l 1988 3337 l 1982 3333 l 1979 3329 l
 1978 3326 l 1978 3321 l 1981 3316 l 1985 3310 l 1990 3302 l
 1996 3294 l 2001 3286 l 2005 3277 l 2006 3269 l 2005 3262 l
 2002 3255 l 1995 3248 l 1985 3241 l 1974 3234 l 1961 3227 l
 1948 3221 l 1935 3216 l 1923 3211 l 1912 3207 l 1901 3202 l
 1891 3198 l 1880 3194 l 1870 3190 l 1860 3185 l 1851 3182 l
 1843 3178 l 1835 3174 l 1826 3170 l 1817 3165 l 1807 3160 l
 1797 3154 l 1787 3149 l 1777 3144 l 1767 3140 l 1759 3136 l
 1750 3132 l 1741 3127 l 1730 3123 l 1720 3118 l 1709 3113 l
 1698 3109 l 1687 3104 l 1677 3099 l 1667 3095 l 1655 3089 l
 1642 3083 l 1629 3077 l 1616 3072 l 1605 3067 l 1597 3065 l
 1590 3064 l 1586 3065 l 1585 3068 l 1585 3073 l 1588 3080 l
 1593 3089 l 1599 3098 l 1605 3108 l 1612 3118 l 1619 3127 l
 1625 3135 l 1632 3144 l 1639 3153 l 1646 3162 l 1652 3171 l
 1659 3180 l 1665 3189 l 1671 3198 l 1676 3207 l 1682 3217 l
 1688 3228 l 1694 3240 l 1700 3251 l 1706 3262 l 1711 3272 l
 1716 3282 l 1721 3291 l 1725 3300 l 1730 3309 l 1735 3319 l
 1740 3329 l 1744 3340 l 1748 3350 l 1752 3360 l 1756 3372 l
 1760 3384 l 1764 3397 l 1768 3410 l 1773 3422 l 1778 3433 l
 1782 3441 l 1787 3447 l 1791 3450 l 1795 3451 l 1800 3451 l
 1805 3451 l 1810 3449 l 1816 3446 l 1821 3442 l 1826 3438 l
 1831 3434 l 1836 3430 l 1845 3423 l 1854 3416 l 1863 3410 l
 1873 3405 l 1882 3402 l 1891 3402 l 1897 3403 l 1903 3406 l
 1910 3411 l 1917 3416 l 1924 3423 l 1931 3430 l 1938 3437 l
 1944 3445 l 1951 3452 l 1958 3461 l 1965 3470 l 1972 3479 l
 1979 3489 l 1986 3498 l 1991 3507 l 1996 3516 l 2000 3525 l
 2004 3534 l 2008 3544 l 2011 3554 l 2013 3564 l 2015 3574 l
 2017 3582 l 2018 3590 l 2020 3599 l 2021 3608 l 2021 3618 l
 2021 3627 l 2021 3636 l 2020 3644 l 2018 3653 l 2016 3662 l
 2013 3672 l 2009 3681 l 2005 3690 l 2000 3698 l 1994 3704 l
 1987 3711 l 1979 3718 l 1971 3724 l 1963 3730 l 1957 3735 l
 1950 3740 l 1944 3745 l 1937 3749 l 1931 3753 l 1924 3755 l
 1918 3756 l 1912 3754 l 1905 3751 l 1897 3747 l 1889 3742 l
 1881 3736 l 1874 3730 l 1868 3725 l 1861 3719 l 1853 3713 l
 1846 3707 l 1839 3701 l 1833 3696 l 1826 3691 l 1819 3686 l
 1812 3680 l 1804 3674 l 1796 3668 l 1789 3663 l 1784 3659 l
 1778 3654 l 1771 3649 l 1764 3643 l 1757 3637 l 1749 3632 l
 1742 3627 l 1735 3622 l 1728 3616 l 1721 3611 l 1713 3605 l
 1706 3598 l 1700 3592 l 1695 3585 l 1692 3578 l 1691 3571 l
 1691 3564 l 1693 3556 l 1697 3548 l 1702 3539 l 1707 3530 l
 1712 3522 l 1717 3515 l 1721 3509 l 1722 3507 l 1723 3505 l
 1724 3502 l 1725 3500 l 1726 3498 l 1726 3496 l 1726 3494 l
 1726 3493 l 1726 3491 l 1725 3489 l 1724 3487 l 1722 3486 l
 1720 3485 l 1718 3483 l 1716 3482 l 1713 3481 l 1709 3480 l
 1706 3479 l 1702 3478 l 1697 3477 l 1689 3476 l 1679 3475 l
 1668 3473 l 1654 3471 l 1639 3469 l 1623 3466 l 1605 3462 l
 1587 3457 l 1568 3452 l 1550 3446 l 1531 3439 l 1512 3431 l
 1495 3423 l 1477 3414 l 1459 3405 l 1440 3394 l 1421 3384 l
 1402 3373 l 1383 3362 l 1365 3352 l 1349 3343 l 1334 3336 l
 1321 3329 l 1310 3325 l 1301 3322 l 1294 3321 l 1288 3322 l
 1285 3325 l 1283 3330 l 1283 3337 l 1285 3346 l 1288 3356 l
 1292 3368 l 1297 3380 l 1304 3394 l 1310 3407 l 1317 3421 l
 1324 3435 l 1332 3448 l 1339 3462 l 1346 3477 l 1354 3492 l
 1362 3507 l 1370 3523 l 1378 3538 l 1386 3554 l 1393 3569 l
 1400 3583 l 1406 3597 l 1411 3609 l 1416 3620 l 1420 3631 l
 1426 3645 l 1430 3660 l 1434 3674 l 1438 3687 l 1441 3699 l
 1443 3709 l 1446 3718 l 1448 3725 l 1450 3732 l 1452 3737 l
 1455 3743 l 1458 3747 l 1461 3751 l 1464 3754 l 1467 3755 l
 1470 3756 l 1475 3756 l 1480 3754 l 1486 3750 l 1493 3746 l
 1500 3740 l 1507 3733 l 1513 3728 l 1519 3722 l 1526 3715 l
 1533 3709 l 1541 3703 l 1548 3699 l 1555 3695 l 1562 3694 l
 1568 3693 l 1575 3695 l 1582 3697 l 1590 3702 l 1598 3707 l
 1606 3713 l 1614 3719 l 1622 3726 l 1630 3733 l 1639 3740 l
 1649 3748 l 1660 3757 l 1670 3766 l 1680 3774 l 1689 3782 l
 1698 3789 l 1706 3795 l 1714 3802 l 1721 3810 l 1729 3817 l
 1736 3825 l 1743 3833 l 1748 3840 l 1754 3848 l 1758 3856 l
 1762 3865 l 1766 3874 l 1769 3885 l 1771 3895 l 1772 3904 l
 1772 3913 l 1770 3921 l 1767 3929 l 1762 3936 l 1756 3944 l
 1747 3952 l 1736 3959 l 1724 3966 l 1711 3973 l 1696 3980 l
 1687 3984 l 1677 3988 l 1666 3992 l 1654 3996 l 1641 4000 l
 1628 4004 l 1613 4008 l 1598 4011 l 1582 4014 l 1566 4016 l
 1551 4017 l 1535 4018 l 1519 4018 l 1503 4018 l 1487 4017 l
 1470 4015 l 1453 4012 l 1435 4008 l 1416 4004 l 1398 4000 l
 1380 3995 l 1362 3989 l 1346 3984 l 1331 3978 l 1318 3972 l
 1306 3967 l 1297 3962 l 1289 3957 l 1284 3953 l 1280 3950 l
 1277 3946 l 1274 3943 l 1272 3940 l 1271 3936 l 1270 3933 l
 1270 3930 l 1270 3927 l 1271 3923 l 1273 3920 l 1274 3917 l
 1277 3914 l 1279 3911 l 1282 3909 l 1285 3906 l 1288 3904 l
 1291 3901 l 1294 3899 l 1297 3897 l 1305 3892 l 1313 3886 l
 1321 3881 l 1329 3875 l 1336 3869 l 1343 3863 l 1348 3857 l
 1352 3852 l 1354 3848 l 1355 3843 l 1356 3839 l 1356 3834 l
 1356 3829 l 1354 3824 l 1351 3819 l 1348 3814 l 1343 3809 l
 1338 3805 l 1331 3801 l 1323 3797 l 1314 3794 l 1304 3790 l
 1292 3786 l 1278 3782 l 1263 3777 l 1247 3772 l 1229 3767 l
 1212 3761 l 1194 3755 l 1176 3748 l 1159 3740 l 1141 3732 l
 1126 3724 l 1111 3716 l 1095 3706 l 1079 3696 l 1062 3686 l
 1046 3675 l 1029 3664 l 1014 3654 l 998 3644 l 984 3635 l
 972 3627 l 960 3620 l 950 3614 l 941 3610 l 936 3608 l
 932 3607 l 928 3606 l 924 3605 l 921 3605 l 917 3605 l
 914 3605 l 912 3606 l 909 3607 l 907 3608 l 905 3610 l
 903 3612 l 902 3615 l 901 3618 l 900 3621 l 900 3624 l
 899 3628 l 899 3632 l 900 3636 l 900 3641 l 901 3645 l
 902 3650 l 903 3655 l 905 3660 l 906 3665 l 908 3671 l
 912 3681 l 916 3692 l 921 3705 l 928 3718 l 935 3733 l
 943 3748 l 951 3764 l 961 3781 l 970 3797 l 980 3814 l
 991 3830 l 1001 3846 l 1012 3862 l 1022 3878 l 1032 3891 l
 1042 3905 l 1053 3919 l 1064 3934 l 1076 3948 l 1089 3963 l
 1101 3978 l 1115 3993 l 1128 4008 l 1141 4022 l 1154 4035 l
 1167 4047 l 1180 4059 l 1192 4069 l 1204 4079 l 1216 4088 l
 1229 4098 l 1242 4107 l 1256 4115 l 1271 4123 l 1285 4131 l
 1301 4138 l 1316 4144 l 1331 4150 l 1347 4155 l 1362 4159 l
 1376 4163 l 1391 4167 l 1405 4170 l 1419 4173 l 1432 4175 l
 1447 4177 l 1462 4180 l 1477 4182 l 1493 4184 l 1510 4185 l
 1526 4186 l 1542 4187 l 1558 4188 l 1574 4188 l 1589 4188 l
 1603 4187 l 1616 4186 l 1629 4185 l 1643 4183 l 1658 4180 l
 1672 4177 l 1687 4173 l 1702 4168 l 1716 4163 l 1730 4158 l
 1744 4152 l 1757 4146 l 1769 4141 l 1781 4135 l 1792 4130 l
 1805 4124 l 1818 4117 l 1831 4110 l 1845 4103 l 1858 4096 l
 1871 4089 l 1882 4082 l 1893 4076 l 1902 4071 l 1909 4066 l
 1916 4062 l 1923 4057 l 1929 4053 l 1935 4050 l 1941 4047 l
 1947 4046 l 1952 4045 l 1958 4045 l 1964 4046 l 1971 4049 l
 1978 4052 l 1987 4057 l 1996 4064 l 2007 4071 l 2019 4080 l
 2031 4089 l 2043 4099 l 2055 4109 l 2067 4120 l 2079 4130 l
 2089 4139 l 2100 4148 l 2111 4158 l 2122 4168 l 2134 4178 l
 2146 4189 l 2158 4199 l 2170 4210 l 2181 4220 l 2192 4229 l
 2202 4238 l 2212 4246 l 2222 4254 l 2232 4262 l 2242 4271 l
 2254 4280 l 2267 4290 l 2281 4300 l 2296 4312 l 2309 4322 l
 2321 4331 l 2328 4336 l 2331 4339 l
 2332 4339 l gs col31 1.00 shd ef gr gs col0 s gr 
% Polyline
n 2876 5202 m 2877 5203 l 2880 5207 l 2887 5217 l 2897 5231 l 2908 5246 l
 2919 5259 l 2928 5271 l 2936 5281 l 2943 5289 l 2949 5296 l
 2957 5304 l 2965 5312 l 2974 5320 l 2983 5327 l 2993 5334 l
 3002 5341 l 3011 5347 l 3020 5352 l 3029 5358 l 3039 5364 l
 3050 5370 l 3062 5377 l 3073 5383 l 3084 5389 l 3094 5393 l
 3104 5398 l 3113 5401 l 3122 5405 l 3132 5408 l 3141 5411 l
 3151 5413 l 3159 5415 l 3168 5417 l 3175 5419 l 3183 5421 l
 3191 5423 l 3199 5424 l 3208 5426 l 3217 5428 l 3226 5430 l
 3234 5431 l 3242 5432 l 3250 5433 l 3259 5434 l 3268 5435 l
 3277 5436 l 3286 5436 l 3294 5436 l 3302 5437 l 3309 5437 l
 3317 5437 l 3325 5436 l 3335 5436 l 3345 5435 l 3351 5434 l

 3352 5434 l gs col0 s gr 
% Polyline
n 3161 5427 m 3162 5427 l 3166 5430 l 3176 5436 l 3192 5446 l 3211 5457 l
 3231 5469 l 3249 5480 l 3266 5489 l 3280 5497 l 3293 5504 l
 3303 5509 l 3314 5514 l 3325 5519 l 3336 5524 l 3347 5528 l
 3359 5532 l 3370 5535 l 3381 5538 l 3392 5540 l 3402 5543 l
 3412 5544 l 3422 5546 l 3432 5548 l 3442 5550 l 3454 5551 l
 3466 5553 l 3478 5554 l 3491 5556 l 3503 5556 l 3514 5557 l
 3525 5557 l 3536 5557 l 3546 5556 l 3556 5555 l 3566 5553 l
 3577 5551 l 3588 5549 l 3599 5546 l 3610 5543 l 3620 5540 l
 3630 5537 l 3640 5534 l 3650 5531 l 3661 5528 l 3672 5525 l
 3683 5521 l 3695 5518 l 3707 5514 l 3719 5511 l 3731 5507 l
 3741 5504 l 3752 5501 l 3762 5497 l 3773 5494 l 3784 5490 l
 3796 5487 l 3808 5483 l 3820 5479 l 3833 5476 l 3845 5473 l
 3856 5470 l 3868 5468 l 3879 5465 l 3892 5463 l 3905 5461 l
 3919 5459 l 3934 5457 l 3949 5455 l 3963 5453 l 3977 5452 l
 3990 5450 l 4002 5449 l 4015 5448 l 4027 5446 l 4041 5444 l
 4055 5442 l 4069 5440 l 4083 5438 l 4097 5435 l 4111 5431 l
 4125 5428 l 4138 5424 l 4149 5420 l 4160 5416 l 4173 5412 l
 4186 5407 l 4199 5401 l 4213 5396 l 4226 5390 l 4239 5384 l
 4252 5378 l 4265 5373 l 4276 5367 l 4288 5362 l 4301 5356 l
 4314 5350 l 4328 5344 l 4342 5338 l 4356 5332 l 4370 5326 l
 4383 5320 l 4395 5315 l 4407 5310 l 4418 5305 l 4429 5300 l
 4441 5296 l 4452 5291 l 4464 5286 l 4476 5280 l 4487 5275 l
 4498 5270 l 4508 5265 l 4517 5260 l 4525 5256 l 4535 5249 l
 4545 5242 l 4554 5235 l 4564 5227 l 4573 5218 l 4582 5209 l
 4590 5200 l 4597 5191 l 4603 5183 l 4609 5174 l 4616 5164 l
 4624 5152 l 4633 5137 l 4643 5122 l 4651 5108 l 4658 5098 l
 4661 5094 l
 4661 5093 l gs col0 s gr 
% Polyline
n 2640 4897 m 2643 4902 l 2647 4907 l 2652 4912 l 2656 4917 l 2661 4921 l
 2666 4925 l 2672 4928 l 2678 4931 l 2685 4934 l 2692 4936 l
 2699 4938 l 2706 4939 l 2713 4940 l 2721 4941 l 2729 4942 l
 2736 4943 l 2743 4944 l 2750 4944 l 2756 4945 l 2763 4946 l
 2770 4947 l 2776 4947 l 2781 4948 l 2786 4947 l 2792 4947 l
 2798 4946 l 2805 4945 l 2813 4943 l 2821 4942 l 2828 4940 l
 2836 4939 l 2844 4937 l 2854 4935 l 2864 4933 l 2873 4930 l
 2881 4928 l 2889 4925 l 2899 4921 l 2908 4916 l 2918 4911 l
 2926 4905 l 2934 4899 l 2940 4894 l 2946 4889 l 2952 4883 l
 2958 4876 l 2964 4870 l 2969 4863 l 2974 4856 l 2980 4849 l
 2986 4841 l 2992 4832 l 2999 4822 l 3005 4813 l 3012 4805 l
 3018 4796 l 3024 4787 l 3031 4778 l 3038 4770 l 3044 4762 l
 3050 4756 l 3055 4751 l 3059 4745 l 3064 4740 l 3068 4736 l
 3071 4731 l 3074 4727 l 3076 4722 l 3077 4715 l 3077 4708 l
 3077 4701 l 3076 4695 l 3075 4689 l 3073 4682 l 3071 4674 l
 3069 4667 l 3066 4661 l 3064 4656 l 3062 4650 l 3059 4644 l
 3056 4639 l 3054 4633 l 3051 4628 l 3048 4623 l 3044 4617 l
 3041 4611 l 3037 4605 l 3033 4599 l 3029 4593 l 3028 4591 l
 3026 4589 l 3024 4587 l 3022 4585 l 3020 4583 l 3017 4582 l
 3013 4581 l 3008 4581 l 3003 4582 l 2997 4584 l 2991 4586 l
 2983 4589 l 2975 4593 l 2966 4598 l 2956 4605 l 2945 4612 l
 2934 4619 l 2923 4627 l 2910 4637 l 2896 4647 l 2881 4658 l
 2866 4670 l 2850 4683 l 2833 4697 l 2816 4710 l 2800 4724 l
 2783 4738 l 2767 4751 l 2752 4764 l 2738 4776 l 2725 4788 l
 2713 4799 l 2702 4809 l 2692 4818 l 2679 4830 l 2668 4841 l
 2659 4851 l 2651 4860 l 2646 4868 l 2641 4875 l 2639 4880 l
 2637 4885 l 2637 4889 l 2637 4892 l 2638 4895 l
 cp gs col20 1.00 shd ef gr gs col0 s gr 
% Polyline
n 2891 5190 m 2893 5191 l 2902 5194 l 2915 5198 l 2928 5203 l 2938 5206 l
 2947 5209 l 2955 5212 l 2964 5215 l 2974 5218 l 2983 5221 l
 2992 5224 l 3001 5226 l 3009 5228 l 3018 5230 l 3028 5231 l
 3037 5232 l 3046 5234 l 3054 5235 l 3062 5235 l 3070 5236 l
 3078 5237 l 3086 5237 l 3094 5238 l 3101 5238 l 3108 5239 l
 3115 5239 l 3123 5239 l 3131 5239 l 3139 5239 l 3145 5239 l
 3153 5239 l 3161 5239 l 3169 5239 l 3176 5239 l 3180 5238 l
 3182 5238 l 3183 5238 l 3184 5238 l 3185 5237 l 3186 5237 l
 3186 5236 l 3187 5236 l
 3187 5235 l gs col0 s gr 
% Polyline
n 2468 6609 m 2462 6602 l 2456 6595 l 2448 6588 l 2440 6581 l 2432 6573 l
 2423 6566 l 2415 6559 l 2408 6553 l 2400 6547 l 2391 6540 l
 2382 6534 l 2373 6527 l 2363 6521 l 2353 6515 l 2344 6510 l
 2335 6506 l 2325 6501 l 2314 6497 l 2303 6494 l 2290 6490 l
 2278 6487 l 2265 6484 l 2253 6482 l 2242 6480 l 2232 6479 l
 2222 6478 l 2212 6476 l 2201 6476 l 2190 6475 l 2178 6474 l
 2167 6474 l 2155 6474 l 2144 6473 l 2134 6474 l 2122 6474 l
 2111 6474 l 2098 6475 l 2085 6475 l 2071 6476 l 2058 6477 l
 2044 6479 l 2031 6480 l 2018 6482 l 2006 6484 l 1996 6485 l
 1985 6487 l 1974 6489 l 1963 6491 l 1951 6493 l 1938 6496 l
 1926 6499 l 1913 6502 l 1900 6505 l 1887 6508 l 1875 6511 l
 1862 6515 l 1851 6517 l 1839 6521 l 1826 6524 l 1813 6527 l
 1799 6531 l 1785 6535 l 1770 6540 l 1755 6544 l 1740 6549 l
 1726 6553 l 1711 6558 l 1697 6563 l 1684 6567 l 1671 6572 l
 1656 6578 l 1640 6584 l 1624 6590 l 1608 6596 l 1592 6603 l
 1575 6611 l 1560 6618 l 1545 6625 l 1531 6631 l 1519 6637 l
 1508 6643 l 1498 6649 l 1484 6657 l 1472 6665 l 1461 6673 l
 1450 6682 l 1442 6690 l 1435 6697 l 1429 6704 l 1424 6710 l
 1418 6718 l 1413 6727 l 1409 6737 l 1406 6747 l 1404 6757 l
 1403 6767 l 1403 6775 l 1403 6783 l 1404 6793 l 1406 6803 l
 1408 6813 l 1410 6824 l 1412 6833 l 1415 6843 l 1418 6852 l
 1421 6861 l 1425 6871 l 1430 6881 l 1435 6891 l 1441 6901 l
 1446 6910 l 1453 6918 l 1459 6925 l 1467 6933 l 1476 6941 l
 1486 6949 l 1496 6956 l 1507 6963 l 1518 6969 l 1529 6975 l
 1538 6979 l 1548 6984 l 1558 6988 l 1570 6992 l 1582 6996 l
 1594 7000 l 1606 7004 l 1618 7007 l 1630 7010 l 1642 7013 l
 1654 7015 l 1667 7017 l 1680 7019 l 1695 7021 l 1710 7022 l
 1726 7024 l 1741 7025 l 1756 7026 l 1770 7027 l 1785 7028 l
 1796 7028 l 1809 7029 l 1822 7029 l 1835 7030 l 1849 7030 l
 1863 7030 l 1877 7031 l 1891 7031 l 1904 7031 l 1916 7032 l
 1928 7032 l 1939 7033 l 1952 7033 l 1965 7033 l 1979 7034 l
 1992 7034 l 2006 7035 l 2020 7035 l 2032 7036 l 2044 7036 l
 2056 7037 l 2067 7037 l 2077 7037 l 2088 7037 l 2099 7038 l
 2111 7038 l 2123 7038 l 2136 7038 l 2148 7038 l 2160 7038 l
 2172 7038 l 2183 7038 l 2191 7038 l 2200 7038 l 2209 7037 l
 2219 7036 l 2229 7035 l 2240 7033 l 2251 7029 l 2262 7025 l
 2273 7020 l 2284 7013 l 2295 7006 l 2306 6997 l 2317 6987 l
 2328 6976 l 2337 6964 l 2347 6951 l 2357 6937 l 2367 6922 l
 2377 6905 l 2388 6887 l 2398 6868 l 2408 6849 l 2418 6830 l
 2428 6811 l 2437 6793 l 2445 6775 l 2452 6759 l 2458 6743 l
 2464 6729 l 2469 6717 l 2474 6701 l 2478 6687 l 2481 6674 l
 2483 6663 l 2483 6653 l 2483 6643 l 2482 6635 l 2480 6628 l
 2478 6622 l 2475 6617 l 2472 6613 l
 cp gs col7 1.00 shd ef gr gs col0 s gr 
% Polyline
n 4102 4658 m 4100 4659 l 4092 4665 l 4080 4673 l 4068 4681 l 4059 4686 l
 4051 4690 l 4044 4693 l 4036 4696 l 4027 4698 l 4018 4700 l
 4009 4701 l 4001 4702 l 3994 4703 l 3986 4703 l 3978 4704 l
 3969 4704 l 3960 4705 l 3952 4705 l 3944 4705 l 3936 4706 l
 3927 4706 l 3917 4706 l 3907 4706 l 3897 4705 l 3888 4704 l
 3880 4703 l 3871 4701 l 3861 4699 l 3850 4696 l 3839 4693 l
 3829 4690 l 3819 4686 l 3811 4683 l 3802 4680 l 3793 4676 l
 3783 4672 l 3773 4668 l 3764 4663 l 3755 4658 l 3746 4654 l
 3737 4648 l 3728 4642 l 3719 4636 l 3709 4629 l 3699 4622 l
 3690 4615 l 3682 4609 l 3674 4603 l 3667 4597 l 3659 4591 l
 3651 4585 l 3643 4579 l 3635 4573 l 3627 4567 l 3619 4562 l
 3611 4557 l 3603 4552 l 3594 4547 l 3585 4541 l 3575 4536 l
 3564 4530 l 3554 4525 l 3544 4521 l 3535 4516 l 3525 4512 l
 3515 4507 l 3504 4503 l 3492 4499 l 3480 4494 l 3468 4490 l
 3456 4487 l 3445 4484 l 3435 4481 l 3425 4479 l 3414 4477 l
 3403 4475 l 3391 4473 l 3379 4471 l 3367 4469 l 3356 4468 l
 3345 4466 l 3335 4465 l 3325 4464 l 3314 4464 l 3303 4463 l
 3292 4462 l 3281 4462 l 3270 4462 l 3259 4462 l 3248 4462 l
 3238 4463 l 3229 4463 l 3217 4465 l 3204 4466 l 3192 4468 l
 3179 4471 l 3167 4474 l 3156 4476 l 3146 4479 l 3137 4482 l
 3129 4485 l 3122 4489 l 3114 4493 l 3106 4497 l 3099 4502 l
 3091 4506 l 3083 4511 l 3075 4517 l 3068 4521 l 3060 4526 l
 3050 4532 l 3039 4539 l 3025 4547 l 3010 4556 l 2996 4565 l
 2986 4571 l 2982 4574 l
 2981 4574 l gs col0 s gr 
% Polyline
n 2940 2986 m 2939 2985 l 2932 2981 l 2920 2973 l 2905 2963 l 2891 2954 l
 2879 2947 l 2869 2941 l 2859 2937 l 2849 2933 l 2839 2930 l
 2827 2927 l 2816 2924 l 2804 2922 l 2792 2920 l 2781 2919 l
 2770 2918 l 2760 2918 l 2748 2917 l 2736 2918 l 2724 2918 l
 2712 2919 l 2700 2921 l 2689 2923 l 2679 2925 l 2669 2928 l
 2659 2932 l 2648 2936 l 2637 2941 l 2627 2946 l 2617 2952 l
 2608 2957 l 2601 2963 l 2593 2969 l 2586 2976 l 2579 2983 l
 2572 2991 l 2566 2999 l 2560 3008 l 2556 3016 l 2552 3024 l
 2548 3033 l 2545 3042 l 2542 3053 l 2540 3063 l 2538 3074 l
 2536 3085 l 2535 3095 l 2534 3105 l 2534 3114 l 2534 3124 l
 2534 3135 l 2534 3145 l 2536 3156 l 2537 3166 l 2540 3175 l
 2542 3184 l 2546 3193 l 2550 3202 l 2555 3212 l 2560 3222 l
 2567 3231 l 2573 3240 l 2579 3248 l 2586 3255 l 2592 3262 l
 2599 3268 l 2607 3275 l 2616 3281 l 2624 3288 l 2632 3293 l
 2640 3298 l 2648 3303 l 2656 3307 l 2664 3311 l 2673 3315 l
 2683 3319 l 2693 3323 l 2702 3326 l 2712 3329 l 2721 3331 l
 2730 3333 l 2740 3335 l 2750 3336 l 2762 3338 l 2773 3339 l
 2783 3340 l 2794 3340 l 2803 3341 l 2812 3341 l 2822 3341 l
 2832 3342 l 2842 3342 l 2852 3341 l 2862 3341 l 2871 3341 l
 2880 3340 l 2889 3339 l 2898 3339 l 2907 3337 l 2917 3336 l
 2926 3335 l 2935 3334 l 2944 3332 l 2951 3331 l 2961 3329 l
 2970 3328 l 2980 3326 l 2989 3324 l 2997 3323 l 3005 3323 l
 3012 3322 l 3019 3322 l 3026 3323 l 3033 3324 l 3040 3326 l
 3047 3329 l 3053 3332 l 3061 3336 l 3070 3340 l 3079 3344 l
 3088 3348 l 3097 3350 l 3107 3352 l 3117 3353 l 3129 3352 l
 3140 3352 l 3150 3351 l 3159 3349 l 3167 3348 l 3175 3346 l
 3182 3343 l 3188 3340 l 3193 3336 l 3197 3331 l 3200 3325 l
 3203 3317 l 3205 3308 l 3206 3298 l 3206 3287 l 3206 3278 l
 3205 3268 l 3204 3257 l 3201 3246 l 3198 3235 l 3195 3225 l
 3191 3217 l 3187 3210 l 3181 3203 l 3173 3195 l 3164 3187 l
 3158 3182 l
 3157 3181 l gs col0 s gr 
% Polyline
n 3309 2031 m 3318 2017 l 3328 2004 l 3338 1992 l 3349 1979 l 3360 1967 l
 3371 1955 l 3382 1943 l 3394 1932 l 3405 1922 l 3417 1913 l
 3428 1904 l 3440 1895 l 3452 1886 l 3466 1878 l 3480 1869 l
 3495 1861 l 3511 1853 l 3528 1845 l 3544 1839 l 3561 1834 l
 3577 1830 l 3592 1828 l 3607 1828 l 3621 1829 l 3632 1831 l
 3644 1835 l 3656 1839 l 3668 1845 l 3679 1853 l 3691 1861 l
 3702 1871 l 3713 1882 l 3723 1893 l 3733 1904 l 3741 1916 l
 3749 1928 l 3756 1940 l 3762 1952 l 3767 1965 l 3772 1978 l
 3777 1991 l 3781 2006 l 3785 2021 l 3788 2037 l 3791 2054 l
 3793 2071 l 3795 2088 l 3797 2106 l 3798 2123 l 3798 2140 l
 3799 2157 l 3799 2174 l 3799 2189 l 3799 2205 l 3798 2222 l
 3798 2239 l 3797 2258 l 3796 2277 l 3795 2296 l 3793 2316 l
 3792 2336 l 3790 2356 l 3787 2376 l 3785 2395 l 3783 2414 l
 3780 2433 l 3777 2451 l 3774 2469 l 3770 2486 l 3767 2504 l
 3763 2522 l 3758 2541 l 3753 2560 l 3748 2580 l 3743 2599 l
 3737 2619 l 3731 2638 l 3724 2657 l 3718 2676 l 3711 2693 l
 3705 2710 l 3698 2726 l 3692 2741 l 3685 2756 l 3677 2773 l
 3669 2789 l 3661 2805 l 3651 2821 l 3641 2837 l 3631 2853 l
 3620 2869 l 3609 2884 l 3597 2899 l 3586 2912 l 3574 2925 l
 3562 2936 l 3551 2947 l 3539 2957 l 3527 2967 l 3514 2976 l
 3500 2985 l 3486 2993 l 3471 3001 l 3455 3009 l 3439 3016 l
 3422 3022 l 3405 3027 l 3389 3031 l 3373 3034 l 3358 3036 l
 3343 3037 l 3328 3038 l 3313 3037 l 3298 3036 l 3283 3033 l
 3267 3030 l 3251 3025 l 3235 3019 l 3219 3013 l 3204 3005 l
 3189 2997 l 3175 2988 l 3162 2979 l 3150 2969 l 3139 2958 l
 3129 2948 l 3120 2936 l 3111 2924 l 3103 2911 l 3095 2896 l
 3087 2881 l 3080 2865 l 3074 2849 l 3068 2832 l 3063 2816 l
 3059 2799 l 3055 2784 l 3052 2768 l 3049 2754 l 3047 2740 l
 3045 2726 l 3044 2712 l 3043 2697 l 3042 2683 l 3042 2667 l
 3042 2652 l 3043 2636 l 3044 2620 l 3046 2604 l 3048 2588 l
 3051 2572 l 3055 2557 l 3058 2542 l 3062 2526 l 3066 2512 l
 3071 2498 l 3076 2483 l 3081 2467 l 3088 2451 l 3094 2433 l
 3101 2416 l 3109 2398 l 3116 2379 l 3124 2361 l 3132 2344 l
 3140 2326 l 3148 2309 l 3156 2293 l 3164 2277 l 3172 2262 l
 3180 2247 l 3188 2231 l 3196 2216 l 3204 2200 l 3213 2184 l
 3222 2168 l 3232 2152 l 3241 2136 l 3250 2120 l 3260 2105 l
 3269 2091 l 3277 2077 l 3286 2065 l 3294 2053 l 3301 2041 l

 cp gs col7 1.00 shd ef gr gs col0 s gr 
% Polyline
45.000 slw
n 2498 3459 m 2499 3459 l 2505 3459 l 2517 3459 l 2532 3460 l 2545 3461 l
 2555 3461 l 2563 3462 l 2571 3464 l 2579 3467 l 2587 3471 l
 2595 3476 l 2603 3481 l 2610 3488 l 2617 3495 l 2623 3501 l
 2629 3507 l 2636 3514 l 2643 3522 l 2651 3530 l 2658 3538 l
 2665 3546 l 2672 3553 l 2679 3560 l 2686 3568 l 2693 3576 l
 2701 3584 l 2708 3592 l 2716 3599 l 2723 3606 l 2730 3613 l
 2737 3620 l 2744 3627 l 2752 3634 l 2761 3642 l 2769 3649 l
 2777 3657 l 2785 3664 l 2792 3672 l 2799 3679 l 2807 3687 l
 2815 3695 l 2824 3704 l 2833 3713 l 2841 3722 l 2850 3730 l
 2859 3737 l 2866 3743 l 2874 3749 l 2883 3756 l 2892 3762 l
 2902 3769 l 2911 3775 l 2921 3781 l 2931 3787 l 2940 3793 l
 2950 3798 l 2959 3803 l 2969 3809 l 2979 3814 l 2990 3820 l
 3001 3826 l 3012 3831 l 3024 3836 l 3035 3841 l 3045 3845 l
 3056 3849 l 3066 3853 l 3077 3856 l 3089 3859 l 3101 3862 l
 3114 3865 l 3127 3868 l 3141 3870 l 3154 3872 l 3166 3874 l
 3179 3876 l 3189 3877 l 3201 3878 l 3212 3879 l 3225 3879 l
 3238 3880 l 3251 3880 l 3264 3881 l 3277 3881 l 3289 3881 l
 3301 3881 l 3312 3880 l 3323 3880 l 3336 3879 l 3349 3878 l
 3362 3876 l 3376 3875 l 3390 3872 l 3404 3870 l 3417 3867 l
 3430 3864 l 3442 3860 l 3454 3857 l 3466 3852 l 3478 3848 l
 3491 3843 l 3504 3837 l 3518 3831 l 3531 3825 l 3544 3818 l
 3556 3813 l 3568 3807 l 3579 3802 l 3590 3796 l 3601 3791 l
 3612 3785 l 3624 3780 l 3636 3774 l 3647 3768 l 3659 3762 l
 3670 3756 l 3681 3750 l 3692 3744 l 3703 3738 l 3715 3731 l
 3727 3724 l 3739 3717 l 3751 3709 l 3764 3701 l 3775 3693 l
 3785 3686 l 3795 3680 l 3803 3673 l 3812 3666 l 3821 3658 l
 3829 3650 l 3837 3643 l 3844 3637 l 3852 3631 l 3859 3626 l
 3866 3622 l 3873 3619 l 3881 3617 l 3891 3614 l 3901 3613 l
 3910 3612 l 3920 3611 l 3928 3610 l 3936 3610 l 3945 3610 l
 3954 3609 l 3964 3609 l 3975 3609 l 3982 3609 l
 3983 3609 l gs col0 s gr 
% Polyline
30.000 slw
n 2870 2736 m 2876 2727 l 2882 2719 l 2888 2710 l 2895 2701 l 2901 2690 l
 2907 2679 l 2913 2667 l 2919 2654 l 2925 2640 l 2931 2625 l
 2935 2612 l 2940 2599 l 2945 2585 l 2950 2569 l 2956 2552 l
 2962 2534 l 2967 2515 l 2973 2496 l 2979 2477 l 2985 2459 l
 2991 2440 l 2996 2423 l 3001 2406 l 3006 2390 l 3011 2374 l
 3016 2359 l 3021 2343 l 3026 2327 l 3031 2311 l 3036 2295 l
 3041 2279 l 3046 2264 l 3051 2249 l 3056 2235 l 3061 2222 l
 3065 2210 l 3069 2199 l 3073 2188 l 3078 2175 l 3083 2163 l
 3088 2151 l 3092 2139 l 3097 2127 l 3102 2114 l 3107 2102 l
 3112 2091 l 3117 2080 l 3121 2070 l 3125 2060 l 3129 2051 l
 3133 2039 l 3138 2028 l 3142 2016 l 3147 2003 l 3152 1991 l
 3156 1979 l 3160 1968 l 3164 1957 l 3167 1948 l 3170 1939 l
 3173 1929 l 3176 1919 l 3179 1909 l 3180 1899 l 3181 1889 l
 3180 1879 l 3179 1869 l 3176 1859 l 3173 1851 l 3170 1844 l
 3166 1836 l 3161 1827 l 3155 1819 l 3149 1811 l 3141 1803 l
 3133 1796 l 3125 1790 l 3116 1785 l 3107 1782 l 3098 1780 l
 3088 1778 l 3077 1778 l 3066 1780 l 3053 1782 l 3040 1785 l
 3027 1789 l 3014 1794 l 3001 1800 l 2989 1805 l 2978 1811 l
 2967 1816 l 2958 1822 l 2947 1829 l 2936 1836 l 2926 1843 l
 2916 1851 l 2906 1860 l 2896 1870 l 2886 1880 l 2876 1891 l
 2866 1902 l 2856 1915 l 2848 1924 l 2840 1934 l 2831 1946 l
 2822 1958 l 2812 1971 l 2801 1986 l 2790 2000 l 2780 2016 l
 2769 2031 l 2758 2047 l 2748 2062 l 2738 2077 l 2729 2092 l
 2720 2107 l 2711 2122 l 2702 2137 l 2693 2153 l 2684 2169 l
 2675 2185 l 2666 2202 l 2658 2219 l 2650 2235 l 2642 2251 l
 2635 2265 l 2628 2279 l 2622 2292 l 2616 2304 l 2611 2315 l
 2605 2327 l 2600 2339 l 2595 2350 l 2591 2361 l 2586 2373 l
 2582 2385 l 2578 2396 l 2575 2408 l 2572 2421 l 2569 2433 l
 2566 2446 l 2564 2460 l 2562 2472 l 2560 2486 l 2558 2500 l
 2557 2516 l 2555 2533 l 2554 2551 l 2553 2568 l 2552 2586 l
 2551 2604 l 2551 2621 l 2552 2637 l 2552 2652 l 2553 2666 l
 2555 2680 l 2558 2697 l 2562 2713 l 2567 2728 l 2573 2742 l
 2579 2756 l 2586 2768 l 2593 2779 l 2600 2788 l 2607 2796 l
 2614 2803 l 2622 2810 l 2630 2817 l 2639 2824 l 2648 2829 l
 2658 2834 l 2667 2838 l 2677 2841 l 2686 2843 l 2696 2845 l
 2708 2845 l 2720 2845 l 2733 2844 l 2747 2841 l 2760 2838 l
 2772 2832 l 2783 2826 l 2792 2820 l 2802 2813 l 2811 2804 l
 2821 2795 l 2830 2785 l 2839 2774 l 2848 2764 l 2856 2754 l
 2863 2744 l
 cp gs col7 1.00 shd ef gr gs col0 s gr 
% Polyline
n 3489 1649 m 3490 1649 l 3494 1646 l 3504 1640 l 3520 1632 l 3539 1622 l
 3559 1611 l 3578 1601 l 3596 1593 l 3612 1586 l 3626 1581 l
 3639 1577 l 3652 1573 l 3665 1571 l 3678 1569 l 3692 1568 l
 3706 1568 l 3721 1568 l 3736 1569 l 3751 1571 l 3766 1573 l
 3780 1576 l 3793 1580 l 3805 1584 l 3817 1588 l 3829 1593 l
 3840 1599 l 3852 1605 l 3863 1612 l 3875 1621 l 3886 1630 l
 3897 1640 l 3907 1650 l 3917 1661 l 3925 1672 l 3933 1684 l
 3940 1696 l 3946 1707 l 3952 1719 l 3957 1733 l 3962 1748 l
 3968 1765 l 3974 1785 l 3980 1807 l 3986 1830 l 3992 1852 l
 3998 1873 l 4002 1888 l 4004 1897 l 4005 1901 l
 4005 1902 l gs col0 s gr 
% Polyline
n 3278 1680 m 3278 1679 l 3277 1674 l 3274 1664 l 3270 1650 l 3265 1634 l
 3260 1620 l 3256 1607 l 3251 1598 l 3246 1589 l 3241 1583 l
 3234 1576 l 3227 1571 l 3219 1566 l 3209 1561 l 3199 1557 l
 3188 1553 l 3177 1550 l 3165 1548 l 3154 1546 l 3143 1545 l
 3132 1544 l 3120 1543 l 3107 1543 l 3093 1544 l 3079 1545 l
 3064 1547 l 3050 1550 l 3037 1554 l 3024 1558 l 3011 1563 l
 3001 1569 l 2991 1575 l 2980 1582 l 2969 1590 l 2957 1599 l
 2945 1609 l 2933 1620 l 2920 1631 l 2908 1643 l 2896 1654 l
 2885 1666 l 2873 1678 l 2864 1688 l 2854 1697 l 2844 1708 l
 2834 1719 l 2823 1730 l 2812 1742 l 2801 1755 l 2789 1768 l
 2778 1782 l 2766 1795 l 2755 1809 l 2744 1823 l 2734 1836 l
 2724 1849 l 2714 1862 l 2705 1876 l 2696 1889 l 2687 1903 l
 2678 1917 l 2669 1932 l 2660 1948 l 2651 1964 l 2642 1980 l
 2633 1997 l 2624 2014 l 2616 2030 l 2608 2046 l 2601 2062 l
 2594 2077 l 2588 2092 l 2582 2106 l 2576 2119 l 2570 2134 l
 2564 2150 l 2558 2165 l 2553 2181 l 2547 2197 l 2541 2213 l
 2536 2229 l 2531 2244 l 2526 2260 l 2521 2274 l 2517 2288 l
 2512 2301 l 2508 2313 l 2504 2325 l 2499 2338 l 2495 2352 l
 2489 2366 l 2484 2380 l 2479 2394 l 2473 2409 l 2467 2423 l
 2462 2437 l 2456 2451 l 2451 2464 l 2446 2477 l 2441 2490 l
 2437 2503 l 2432 2517 l 2426 2532 l 2420 2549 l 2413 2568 l
 2406 2590 l 2398 2613 l 2391 2635 l 2385 2652 l 2381 2664 l
 2379 2669 l
 2379 2670 l gs col0 s gr 
% Polyline
n 4036 5613 m 4048 5621 l 4060 5629 l 4071 5637 l 4083 5644 l 4095 5652 l
 4106 5659 l 4117 5666 l 4128 5673 l 4138 5679 l 4147 5685 l
 4157 5691 l 4165 5696 l 4176 5703 l 4187 5710 l 4198 5717 l
 4210 5724 l 4221 5732 l 4233 5739 l 4245 5747 l 4255 5754 l
 4265 5760 l 4275 5767 l 4284 5773 l 4294 5779 l 4304 5785 l
 4314 5792 l 4323 5798 l 4333 5805 l 4342 5810 l 4350 5816 l
 4357 5820 l 4363 5824 l 4373 5831 l 4382 5836 l 4391 5841 l
 4399 5845 l 4406 5848 l 4412 5850 l 4419 5851 l 4426 5851 l
 4433 5851 l 4440 5850 l 4446 5848 l 4451 5846 l 4457 5844 l
 4462 5840 l 4467 5837 l 4471 5834 l 4475 5830 l 4479 5826 l
 4482 5821 l 4486 5816 l 4490 5811 l 4493 5806 l 4497 5801 l
 4501 5796 l 4506 5790 l 4509 5785 l 4512 5780 l 4516 5774 l
 4519 5767 l 4521 5760 l 4523 5753 l 4524 5747 l 4524 5740 l
 4524 5734 l 4523 5727 l 4522 5719 l 4521 5713 l 4520 5707 l
 4518 5702 l 4515 5697 l 4512 5691 l 4508 5686 l 4504 5682 l
 4499 5677 l 4494 5673 l 4489 5668 l 4482 5663 l 4475 5658 l
 4468 5653 l 4461 5648 l 4454 5643 l 4446 5638 l 4437 5632 l
 4427 5626 l 4417 5620 l 4408 5614 l 4400 5609 l 4391 5604 l
 4382 5598 l 4371 5591 l 4361 5584 l 4351 5578 l 4341 5571 l
 4332 5565 l 4322 5559 l 4313 5553 l 4303 5546 l 4292 5540 l
 4283 5534 l 4274 5528 l 4266 5523 l 4258 5519 l 4252 5515 l
 4245 5511 l 4238 5507 l 4231 5503 l 4224 5499 l 4217 5495 l
 4210 5491 l 4203 5486 l 4195 5480 l 4186 5474 l 4177 5468 l
 4167 5460 l 4158 5453 l 4149 5447 l 4142 5442 l 4136 5437 l
 4131 5434 l 4127 5431 l 4124 5429 l 4120 5428 l 4116 5428 l
 4112 5428 l 4106 5428 l 4100 5429 l 4093 5430 l 4085 5431 l
 4076 5433 l 4066 5434 l 4054 5436 l 4042 5438 l 4029 5440 l
 4017 5441 l 4005 5443 l 3993 5445 l 3981 5447 l 3969 5449 l
 3957 5450 l 3944 5452 l 3932 5455 l 3920 5457 l 3910 5459 l
 3900 5460 l 3892 5462 l 3885 5464 l 3882 5465 l 3880 5465 l
 3878 5466 l 3876 5467 l 3874 5468 l 3872 5468 l 3871 5469 l
 3869 5470 l 3868 5471 l 3867 5472 l 3867 5474 l 3866 5475 l
 3866 5476 l 3866 5478 l 3866 5479 l 3867 5481 l 3868 5483 l
 3869 5485 l 3870 5487 l 3872 5489 l 3874 5491 l 3876 5493 l
 3878 5496 l 3881 5498 l 3884 5501 l 3887 5504 l 3894 5510 l
 3904 5517 l 3914 5526 l 3926 5535 l 3939 5545 l 3954 5555 l
 3968 5566 l 3983 5576 l 3997 5586 l 4011 5596 l 4024 5605 l

 cp gs col31 1.00 shd ef gr gs col0 s gr 
7.500 slw
% Rotated Ellipse
gs
3291 2663 tr
-345.998 rot
n 0 0 179 279 0 360 DrawEllipse 345.998 rot
gs 0.00 setgray ef gr gs col0 s gr
gr

% Polyline
30.000 slw
n 2303 4762 m 2309 4770 l 2316 4777 l 2323 4784 l 2330 4792 l 2337 4799 l
 2344 4805 l 2350 4811 l 2356 4816 l 2364 4823 l 2372 4830 l
 2381 4837 l 2390 4843 l 2399 4848 l 2408 4852 l 2415 4854 l
 2423 4857 l 2432 4859 l 2441 4861 l 2451 4863 l 2461 4864 l
 2471 4866 l 2480 4867 l 2489 4867 l 2500 4868 l 2510 4869 l
 2522 4869 l 2533 4869 l 2543 4869 l 2554 4869 l 2563 4868 l
 2572 4867 l 2582 4866 l 2592 4865 l 2602 4863 l 2613 4861 l
 2623 4859 l 2633 4857 l 2642 4855 l 2651 4853 l 2661 4850 l
 2672 4848 l 2682 4845 l 2693 4842 l 2703 4839 l 2712 4836 l
 2720 4833 l 2728 4831 l 2736 4827 l 2744 4824 l 2751 4820 l
 2759 4816 l 2766 4812 l 2773 4807 l 2779 4802 l 2785 4797 l
 2792 4791 l 2799 4784 l 2807 4777 l 2815 4769 l 2823 4760 l
 2830 4752 l 2838 4744 l 2844 4737 l 2851 4730 l 2858 4723 l
 2865 4715 l 2873 4706 l 2880 4698 l 2888 4690 l 2895 4682 l
 2901 4674 l 2908 4667 l 2915 4658 l 2923 4649 l 2931 4640 l
 2939 4630 l 2947 4621 l 2953 4612 l 2960 4604 l 2965 4597 l
 2970 4589 l 2975 4582 l 2979 4574 l 2984 4566 l 2987 4558 l
 2990 4551 l 2993 4544 l 2994 4537 l 2996 4530 l 2996 4522 l
 2997 4514 l 2997 4506 l 2997 4497 l 2996 4488 l 2996 4480 l
 2995 4472 l 2994 4464 l 2993 4455 l 2991 4446 l 2989 4437 l
 2987 4427 l 2984 4418 l 2981 4410 l 2977 4403 l 2972 4395 l
 2967 4388 l 2961 4381 l 2954 4373 l 2947 4367 l 2939 4360 l
 2932 4354 l 2926 4349 l 2919 4344 l 2912 4340 l 2904 4335 l
 2896 4330 l 2888 4326 l 2881 4322 l 2873 4318 l 2866 4315 l
 2859 4311 l 2851 4308 l 2843 4305 l 2834 4302 l 2825 4300 l
 2817 4297 l 2809 4295 l 2801 4294 l 2793 4293 l 2785 4292 l
 2776 4291 l 2767 4291 l 2758 4291 l 2750 4291 l 2742 4292 l
 2734 4293 l 2724 4294 l 2714 4296 l 2704 4298 l 2693 4302 l
 2684 4305 l 2676 4309 l 2672 4312 l 2667 4315 l 2661 4320 l
 2654 4326 l 2645 4333 l 2635 4342 l 2623 4353 l 2609 4366 l
 2593 4380 l 2575 4397 l 2564 4407 l 2552 4418 l 2538 4430 l
 2524 4443 l 2509 4457 l 2493 4472 l 2477 4487 l 2460 4503 l
 2443 4519 l 2426 4535 l 2410 4552 l 2394 4567 l 2380 4582 l
 2366 4597 l 2353 4610 l 2342 4623 l 2331 4635 l 2322 4646 l
 2314 4658 l 2306 4668 l 2300 4679 l 2295 4688 l 2291 4698 l
 2288 4706 l 2287 4714 l 2286 4722 l 2286 4729 l 2287 4735 l
 2289 4741 l 2291 4746 l 2294 4750 l 2297 4755 l 2300 4759 l

 cp gs col20 1.00 shd ef gr gs col0 s gr 
7.500 slw
% Rotated Ellipse
gs
2748 2543 tr
-345.998 rot
n 0 0 130 238 0 360 DrawEllipse 345.998 rot
gs 0.00 setgray ef gr gs col0 s gr
gr

% Rotated Ellipse
gs
2738 2495 tr
-350.003 rot
n 0 0 55 105 0 360 DrawEllipse 350.003 rot
gs col7 1.00 shd ef gr gs col0 s gr
gr

% Polyline
30.000 slw
n 2288 6848 m 2292 6837 l 2298 6827 l 2305 6815 l 2313 6804 l 2322 6793 l
 2332 6783 l 2342 6773 l 2351 6764 l 2360 6757 l 2369 6750 l
 2378 6743 l 2386 6738 l 2395 6732 l 2403 6726 l 2413 6721 l
 2422 6716 l 2430 6711 l 2439 6707 l 2448 6703 l 2456 6699 l
 2465 6694 l 2474 6689 l 2484 6684 l 2495 6679 l 2506 6674 l
 2518 6668 l 2529 6663 l 2540 6658 l 2550 6653 l 2560 6649 l
 2570 6645 l 2580 6641 l 2591 6637 l 2602 6633 l 2614 6629 l
 2626 6626 l 2637 6622 l 2648 6619 l 2659 6616 l 2670 6614 l
 2681 6611 l 2692 6608 l 2705 6606 l 2718 6603 l 2731 6601 l
 2744 6598 l 2757 6596 l 2770 6594 l 2782 6592 l 2794 6591 l
 2805 6589 l 2817 6588 l 2829 6586 l 2842 6585 l 2855 6584 l
 2868 6583 l 2880 6583 l 2892 6582 l 2903 6582 l 2914 6582 l
 2925 6581 l 2936 6582 l 2948 6582 l 2960 6582 l 2972 6583 l
 2985 6584 l 2997 6585 l 3008 6586 l 3020 6587 l 3031 6589 l
 3041 6590 l 3053 6592 l 3065 6594 l 3077 6597 l 3090 6599 l
 3102 6602 l 3114 6605 l 3126 6607 l 3136 6610 l 3146 6613 l
 3158 6617 l 3170 6620 l 3182 6625 l 3195 6629 l 3207 6634 l
 3218 6639 l 3228 6644 l 3238 6650 l 3248 6655 l 3258 6661 l
 3268 6668 l 3279 6676 l 3290 6684 l 3300 6692 l 3309 6700 l
 3318 6709 l 3325 6715 l 3332 6722 l 3339 6730 l 3346 6738 l
 3353 6746 l 3360 6755 l 3367 6763 l 3373 6772 l 3378 6780 l
 3383 6788 l 3389 6797 l 3394 6808 l 3399 6820 l 3404 6832 l
 3409 6844 l 3413 6856 l 3416 6868 l 3420 6879 l 3422 6888 l
 3424 6898 l 3426 6908 l 3428 6919 l 3430 6930 l 3432 6940 l
 3433 6951 l 3435 6960 l 3436 6970 l 3437 6978 l 3437 6983 l
 3437 6988 l 3437 6993 l 3436 6998 l 3435 7004 l 3433 7009 l
 3431 7014 l 3427 7020 l 3422 7025 l 3417 7030 l 3410 7036 l
 3402 7041 l 3393 7046 l 3382 7050 l 3371 7055 l 3358 7060 l
 3346 7064 l 3333 7068 l 3319 7072 l 3303 7076 l 3287 7080 l
 3268 7084 l 3248 7088 l 3227 7091 l 3205 7095 l 3182 7098 l
 3157 7101 l 3133 7104 l 3107 7106 l 3081 7108 l 3056 7109 l
 3030 7109 l 3004 7110 l 2978 7109 l 2952 7108 l 2926 7107 l
 2902 7105 l 2877 7102 l 2852 7099 l 2826 7096 l 2800 7092 l
 2773 7088 l 2746 7083 l 2718 7077 l 2690 7071 l 2662 7065 l
 2634 7059 l 2607 7052 l 2581 7045 l 2556 7038 l 2531 7031 l
 2508 7024 l 2486 7017 l 2466 7010 l 2447 7003 l 2429 6996 l
 2413 6990 l 2398 6983 l 2381 6976 l 2366 6968 l 2352 6960 l
 2339 6952 l 2328 6944 l 2318 6936 l 2309 6928 l 2302 6920 l
 2296 6912 l 2291 6904 l 2288 6896 l 2285 6888 l 2284 6881 l
 2283 6874 l 2283 6867 l 2284 6861 l 2286 6854 l
 cp gs col7 1.00 shd ef gr gs col0 s gr 
% Polyline
n 2232 4239 m 2224 4242 l 2216 4247 l 2207 4251 l 2198 4256 l 2190 4261 l
 2183 4267 l 2176 4272 l 2169 4278 l 2162 4286 l 2154 4294 l
 2147 4303 l 2140 4313 l 2135 4320 l 2130 4329 l 2125 4338 l
 2119 4349 l 2114 4359 l 2110 4369 l 2106 4379 l 2104 4387 l
 2101 4396 l 2099 4405 l 2098 4414 l 2097 4423 l 2096 4432 l
 2096 4441 l 2096 4449 l 2095 4458 l 2095 4466 l 2095 4475 l
 2095 4484 l 2095 4495 l 2095 4505 l 2096 4514 l 2096 4523 l
 2098 4532 l 2099 4540 l 2102 4548 l 2105 4557 l 2109 4566 l
 2114 4575 l 2119 4583 l 2125 4591 l 2131 4599 l 2138 4606 l
 2147 4614 l 2156 4622 l 2166 4630 l 2176 4638 l 2186 4645 l
 2196 4651 l 2204 4656 l 2213 4661 l 2222 4665 l 2231 4668 l
 2240 4671 l 2250 4674 l 2260 4676 l 2269 4677 l 2279 4679 l
 2289 4680 l 2300 4681 l 2312 4683 l 2325 4684 l 2338 4685 l
 2351 4686 l 2362 4686 l 2373 4687 l 2384 4688 l 2395 4688 l
 2407 4688 l 2418 4688 l 2430 4688 l 2442 4686 l 2452 4685 l
 2463 4683 l 2472 4680 l 2481 4677 l 2490 4674 l 2500 4670 l
 2510 4665 l 2521 4660 l 2530 4655 l 2540 4650 l 2548 4644 l
 2557 4639 l 2567 4632 l 2577 4624 l 2587 4616 l 2597 4607 l
 2606 4598 l 2614 4589 l 2620 4581 l 2626 4573 l 2631 4565 l
 2635 4558 l 2639 4550 l 2642 4541 l 2645 4533 l 2647 4526 l
 2648 4519 l 2650 4512 l 2651 4504 l 2653 4494 l 2654 4484 l
 2654 4473 l 2654 4462 l 2653 4451 l 2651 4442 l 2649 4432 l
 2647 4421 l 2644 4410 l 2641 4398 l 2637 4387 l 2633 4377 l
 2630 4368 l 2626 4359 l 2621 4351 l 2616 4342 l 2610 4334 l
 2604 4326 l 2597 4319 l 2591 4312 l 2584 4306 l 2577 4301 l
 2571 4296 l 2563 4291 l 2554 4286 l 2544 4281 l 2533 4276 l
 2521 4271 l 2509 4266 l 2496 4262 l 2483 4257 l 2471 4254 l
 2458 4250 l 2444 4247 l 2429 4244 l 2413 4240 l 2397 4237 l
 2381 4234 l 2365 4232 l 2351 4230 l 2337 4228 l 2325 4227 l
 2314 4226 l 2299 4225 l 2286 4225 l 2274 4226 l 2263 4228 l
 2253 4230 l 2245 4233 l 2238 4236 l
 cp gs col20 1.00 shd ef gr gs col0 s gr 
7.500 slw
% Rotated Ellipse
gs
3260 2603 tr
-350.003 rot
n 0 0 55 105 0 360 DrawEllipse 350.003 rot
gs col7 1.00 shd ef gr gs col0 s gr
gr

% Polyline
30.000 slw
n 2246 4048 m 2247 4040 l 2248 4030 l 2251 4020 l 2254 4009 l 2259 3999 l
 2263 3989 l 2268 3983 l 2272 3976 l 2278 3969 l 2284 3963 l
 2291 3957 l 2298 3951 l 2304 3946 l 2311 3941 l 2317 3937 l
 2324 3932 l 2331 3928 l 2339 3924 l 2346 3920 l 2354 3916 l
 2362 3913 l 2369 3911 l 2377 3908 l 2385 3906 l 2394 3903 l
 2404 3901 l 2413 3899 l 2423 3898 l 2431 3896 l 2440 3896 l
 2448 3895 l 2456 3894 l 2465 3894 l 2474 3893 l 2483 3893 l
 2492 3893 l 2499 3893 l 2507 3892 l 2517 3892 l 2527 3892 l
 2538 3891 l 2548 3891 l 2558 3891 l 2567 3891 l 2576 3891 l
 2585 3892 l 2594 3893 l 2604 3895 l 2612 3897 l 2620 3899 l
 2628 3901 l 2637 3905 l 2646 3909 l 2655 3913 l 2665 3919 l
 2674 3925 l 2681 3929 l 2688 3935 l 2697 3941 l 2705 3948 l
 2713 3955 l 2721 3962 l 2727 3969 l 2733 3975 l 2738 3981 l
 2743 3988 l 2747 3996 l 2751 4003 l 2754 4011 l 2757 4019 l
 2759 4026 l 2761 4033 l 2763 4040 l 2765 4048 l 2767 4057 l
 2768 4066 l 2770 4076 l 2771 4085 l 2772 4095 l 2772 4105 l
 2773 4115 l 2773 4125 l 2772 4137 l 2771 4149 l 2770 4161 l
 2768 4173 l 2765 4184 l 2762 4193 l 2758 4202 l 2754 4211 l
 2748 4220 l 2741 4228 l 2733 4236 l 2725 4243 l 2717 4250 l
 2708 4255 l 2701 4259 l 2693 4263 l 2684 4267 l 2674 4270 l
 2664 4274 l 2654 4277 l 2643 4280 l 2633 4282 l 2622 4284 l
 2612 4286 l 2602 4287 l 2591 4288 l 2579 4289 l 2566 4290 l
 2553 4291 l 2540 4292 l 2527 4292 l 2515 4292 l 2503 4292 l
 2492 4292 l 2481 4291 l 2470 4291 l 2458 4290 l 2447 4289 l
 2435 4287 l 2423 4285 l 2412 4283 l 2402 4281 l 2392 4278 l
 2383 4275 l 2373 4270 l 2362 4265 l 2351 4259 l 2341 4251 l
 2331 4243 l 2322 4235 l 2314 4227 l 2306 4219 l 2299 4211 l
 2292 4202 l 2286 4192 l 2279 4182 l 2273 4172 l 2268 4162 l
 2264 4153 l 2261 4145 l 2257 4135 l 2254 4125 l 2252 4115 l
 2251 4106 l 2250 4098 l 2249 4091 l 2248 4085 l 2247 4078 l
 2246 4071 l 2246 4063 l 2246 4056 l
 cp gs col20 1.00 shd ef gr gs col0 s gr 
% Polyline
n 1481 6669 m 1482 6670 l 1487 6673 l 1499 6680 l 1516 6690 l 1534 6700 l
 1551 6710 l 1567 6719 l 1580 6726 l 1593 6732 l 1605 6737 l
 1615 6741 l 1626 6745 l 1637 6749 l 1649 6752 l 1661 6756 l
 1674 6759 l 1687 6762 l 1700 6765 l 1713 6767 l 1725 6770 l
 1737 6771 l 1749 6773 l 1762 6775 l 1774 6776 l 1788 6778 l
 1802 6779 l 1817 6780 l 1833 6781 l 1848 6782 l 1864 6783 l
 1879 6783 l 1894 6784 l 1908 6784 l 1922 6784 l 1934 6784 l
 1946 6784 l 1959 6784 l 1973 6784 l 1987 6784 l 2002 6783 l
 2017 6783 l 2032 6783 l 2047 6782 l 2062 6782 l 2077 6781 l
 2092 6780 l 2107 6780 l 2121 6779 l 2138 6779 l 2156 6778 l
 2175 6777 l 2194 6776 l 2213 6776 l 2232 6775 l 2250 6774 l
 2267 6773 l 2282 6773 l 2295 6772 l 2306 6772 l 2315 6771 l
 2317 6771 l 2319 6771 l 2321 6771 l 2323 6771 l 2325 6771 l
 2326 6771 l 2328 6771 l 2329 6771 l 2330 6771 l 2331 6771 l
 2332 6770 l 2333 6770 l 2334 6770 l 2335 6770 l 2334 6771 l
 2333 6771 l 2332 6771 l 2331 6771 l 2330 6771 l 2329 6771 l
 2328 6771 l
 2327 6771 l gs col0 s gr 
% Polyline
n 3533 6267 m 3533 6268 l 3534 6275 l 3535 6289 l 3536 6305 l 3537 6320 l
 3538 6331 l 3538 6341 l 3538 6349 l 3536 6359 l 3535 6368 l
 3532 6377 l 3529 6385 l 3525 6392 l 3522 6398 l 3517 6404 l
 3512 6410 l 3506 6417 l 3500 6423 l 3493 6428 l 3486 6433 l
 3480 6436 l 3474 6440 l 3466 6443 l 3458 6447 l 3448 6450 l
 3439 6453 l 3429 6456 l 3419 6459 l 3410 6461 l 3400 6463 l
 3390 6466 l 3377 6469 l 3364 6472 l 3350 6476 l 3335 6480 l
 3319 6485 l 3304 6489 l 3287 6495 l 3275 6499 l 3261 6504 l
 3246 6509 l 3229 6516 l 3210 6523 l 3188 6531 l 3164 6541 l
 3139 6551 l 3114 6560 l 3091 6569 l 3075 6576 l 3064 6580 l
 3060 6582 l
 3059 6582 l gs col0 s gr 
% Polyline
n 3983 6181 m 3983 6182 l 3983 6186 l 3984 6196 l 3986 6211 l 3987 6230 l
 3989 6250 l 3991 6268 l 3992 6284 l 3993 6299 l 3994 6311 l
 3995 6322 l 3996 6333 l 3997 6345 l 3997 6357 l 3998 6369 l
 3998 6380 l 3998 6392 l 3998 6403 l 3998 6413 l 3997 6423 l
 3997 6431 l 3996 6439 l 3994 6448 l 3991 6457 l 3988 6465 l
 3984 6474 l 3979 6481 l 3974 6488 l 3968 6494 l 3962 6499 l
 3955 6503 l 3947 6507 l 3937 6511 l 3927 6516 l 3915 6520 l
 3903 6523 l 3892 6527 l 3880 6531 l 3869 6533 l 3859 6537 l
 3847 6540 l 3834 6544 l 3821 6547 l 3807 6551 l 3793 6555 l
 3779 6558 l 3766 6561 l 3753 6564 l 3742 6566 l 3730 6569 l
 3718 6571 l 3704 6573 l 3690 6576 l 3675 6579 l 3660 6583 l
 3645 6586 l 3629 6590 l 3614 6595 l 3598 6599 l 3582 6604 l
 3570 6609 l 3557 6613 l 3543 6618 l 3528 6624 l 3511 6631 l
 3493 6639 l 3472 6648 l 3449 6658 l 3426 6668 l 3403 6679 l
 3381 6688 l 3363 6696 l 3350 6702 l 3343 6705 l
 3339 6707 l gs col0 s gr 
% Polyline
n 2263 6883 m 2260 6890 l 2258 6899 l 2256 6908 l 2254 6916 l 2254 6925 l
 2253 6933 l 2253 6942 l 2252 6951 l 2252 6962 l 2252 6972 l
 2253 6982 l 2253 6991 l 2254 7000 l 2254 7009 l 2256 7018 l
 2257 7027 l 2259 7036 l 2262 7044 l 2264 7049 l 2267 7055 l
 2271 7062 l 2277 7069 l 2284 7076 l 2292 7084 l 2301 7091 l
 2312 7099 l 2320 7104 l 2330 7109 l 2340 7115 l 2352 7122 l
 2364 7128 l 2378 7135 l 2392 7142 l 2406 7148 l 2420 7155 l
 2433 7160 l 2446 7166 l 2459 7171 l 2472 7175 l 2485 7179 l
 2498 7184 l 2512 7188 l 2527 7192 l 2542 7195 l 2558 7199 l
 2574 7202 l 2590 7205 l 2606 7208 l 2623 7210 l 2639 7212 l
 2654 7214 l 2669 7215 l 2686 7217 l 2703 7219 l 2721 7220 l
 2741 7222 l 2760 7223 l 2780 7225 l 2799 7226 l 2818 7227 l
 2837 7229 l 2854 7230 l 2871 7231 l 2887 7232 l 2903 7232 l
 2919 7233 l 2935 7234 l 2951 7235 l 2968 7236 l 2985 7237 l
 3002 7237 l 3020 7238 l 3037 7239 l 3054 7240 l 3071 7240 l
 3088 7241 l 3104 7242 l 3121 7243 l 3135 7243 l 3151 7244 l
 3166 7244 l 3183 7245 l 3201 7246 l 3219 7246 l 3237 7247 l
 3256 7247 l 3274 7248 l 3293 7248 l 3311 7249 l 3328 7249 l
 3345 7249 l 3361 7249 l 3377 7249 l 3392 7249 l 3408 7249 l
 3425 7248 l 3442 7248 l 3459 7247 l 3476 7246 l 3494 7245 l
 3512 7244 l 3530 7242 l 3548 7241 l 3566 7239 l 3583 7238 l
 3600 7236 l 3617 7234 l 3634 7232 l 3649 7230 l 3664 7228 l
 3680 7226 l 3697 7224 l 3715 7222 l 3733 7220 l 3752 7217 l
 3771 7215 l 3789 7212 l 3807 7209 l 3825 7207 l 3842 7204 l
 3859 7202 l 3874 7199 l 3889 7197 l 3903 7195 l 3918 7192 l
 3933 7189 l 3948 7186 l 3963 7183 l 3978 7180 l 3993 7177 l
 4007 7174 l 4021 7171 l 4035 7167 l 4049 7164 l 4061 7160 l
 4074 7157 l 4085 7153 l 4097 7150 l 4109 7146 l 4121 7143 l
 4133 7138 l 4146 7134 l 4160 7129 l 4174 7124 l 4188 7119 l
 4203 7114 l 4217 7108 l 4232 7103 l 4246 7097 l 4260 7092 l
 4273 7086 l 4287 7081 l 4300 7075 l 4314 7070 l 4329 7063 l
 4344 7057 l 4359 7050 l 4375 7044 l 4391 7037 l 4407 7030 l
 4423 7023 l 4437 7017 l 4452 7010 l 4465 7004 l 4478 6999 l
 4490 6994 l 4503 6988 l 4516 6982 l 4529 6976 l 4542 6970 l
 4555 6964 l 4567 6959 l 4578 6954 l 4589 6949 l 4598 6944 l
 4607 6940 l 4615 6937 l 4622 6934 l 4634 6928 l 4644 6922 l
 4654 6917 l 4662 6912 l 4668 6907 l 4673 6902 l 4677 6897 l
 4682 6890 l 4686 6883 l 4689 6876 l 4692 6869 l 4694 6862 l
 4695 6856 l 4696 6849 l 4696 6842 l 4697 6835 l 4696 6828 l
 4696 6822 l 4695 6816 l 4695 6809 l 4694 6802 l 4693 6795 l
 4693 6788 l 4692 6782 l 4692 6775 l 4691 6768 l 4691 6760 l
 4690 6751 l 4690 6743 l 4689 6734 l 4688 6729 l 4688 6723 l
 4686 6717 l 4684 6712 l 4682 6706 l 4679 6701 l 4675 6698 l
 4671 6695 l 4666 6693 l 4660 6693 l 4653 6693 l 4645 6695 l
 4635 6699 l 4624 6703 l 4612 6709 l 4598 6715 l 4584 6722 l
 4570 6730 l 4556 6737 l 4542 6745 l 4529 6751 l 4516 6758 l
 4502 6765 l 4487 6772 l 4471 6779 l 4455 6787 l 4439 6794 l
 4424 6802 l 4408 6808 l 4394 6815 l 4380 6821 l 4368 6826 l
 4355 6831 l 4342 6836 l 4329 6841 l 4316 6846 l 4303 6851 l
 4289 6856 l 4276 6860 l 4262 6864 l 4250 6869 l 4237 6873 l
 4225 6876 l 4213 6880 l 4202 6883 l 4191 6886 l 4179 6890 l
 4167 6893 l 4154 6897 l 4140 6901 l 4126 6905 l 4111 6908 l
 4096 6912 l 4081 6916 l 4067 6919 l 4052 6923 l 4038 6926 l
 4023 6930 l 4008 6933 l 3992 6936 l 3976 6939 l 3959 6943 l
 3941 6946 l 3922 6950 l 3903 6953 l 3884 6957 l 3865 6960 l
 3846 6963 l 3829 6965 l 3812 6968 l 3795 6970 l 3780 6973 l
 3764 6974 l 3748 6976 l 3732 6978 l 3716 6980 l 3700 6982 l
 3683 6983 l 3666 6985 l 3649 6986 l 3633 6987 l 3617 6988 l
 3601 6989 l 3587 6990 l 3572 6991 l 3558 6992 l 3544 6993 l
 3529 6994 l 3514 6994 l 3498 6995 l 3481 6996 l 3463 6997 l
 3445 6997 l 3426 6998 l 3407 6999 l 3388 7000 l 3369 7000 l
 3350 7001 l 3331 7001 l 3312 7002 l 3296 7002 l 3280 7003 l
 3263 7003 l 3245 7004 l 3226 7004 l 3207 7005 l 3187 7005 l
 3167 7006 l 3146 7006 l 3125 7006 l 3104 7006 l 3084 7007 l
 3064 7007 l 3044 7007 l 3025 7007 l 3007 7007 l 2989 7007 l
 2972 7007 l 2953 7006 l 2934 7006 l 2915 7005 l 2895 7005 l
 2875 7004 l 2856 7003 l 2836 7002 l 2817 7001 l 2798 7000 l
 2780 6999 l 2763 6997 l 2746 6996 l 2731 6995 l 2717 6993 l
 2703 6992 l 2691 6991 l 2674 6988 l 2658 6986 l 2643 6984 l
 2628 6982 l 2613 6979 l 2598 6976 l 2584 6973 l 2571 6970 l
 2559 6967 l 2548 6965 l 2538 6962 l 2528 6959 l 2517 6956 l
 2505 6952 l 2493 6948 l 2482 6944 l 2470 6940 l 2459 6936 l
 2449 6932 l 2439 6928 l 2431 6924 l 2424 6920 l 2415 6915 l
 2406 6910 l 2398 6904 l 2390 6899 l 2382 6893 l 2375 6888 l
 2369 6883 l 2364 6878 l 2356 6872 l 2348 6866 l 2340 6860 l
 2332 6855 l 2325 6850 l 2320 6846 l 2316 6843 l 2312 6840 l
 2308 6838 l 2305 6836 l 2301 6835 l 2298 6835 l 2295 6836 l
 2292 6838 l 2287 6842 l 2282 6848 l 2276 6856 l 2271 6865 l
 2267 6874 l
 cp gs col7 1.00 shd ef gr gs col0 s gr 
% Polyline
n 3095 6246 m 3096 6246 l 3100 6246 l 3109 6246 l 3123 6247 l 3141 6248 l
 3159 6248 l 3177 6249 l 3193 6251 l 3207 6252 l 3220 6253 l
 3232 6255 l 3244 6257 l 3256 6260 l 3269 6263 l 3283 6266 l
 3299 6271 l 3317 6276 l 3337 6282 l 3358 6289 l 3378 6295 l
 3394 6301 l 3405 6304 l 3409 6306 l
 3410 6306 l gs col3 s gr 
% Polyline
n 3599 6276 m 3600 6276 l 3605 6277 l 3616 6278 l 3633 6279 l 3654 6281 l
 3676 6283 l 3697 6285 l 3717 6287 l 3734 6289 l 3749 6291 l
 3763 6293 l 3777 6295 l 3791 6297 l 3805 6300 l 3821 6302 l
 3838 6306 l 3858 6309 l 3879 6314 l 3902 6318 l 3924 6323 l
 3942 6326 l 3953 6329 l 3958 6330 l
 3959 6330 l gs col3 s gr 
% Polyline
15.000 slw
n 4281 6302 m 4288 6296 l 4297 6291 l 4305 6287 l 4314 6283 l 4322 6281 l
 4330 6280 l 4337 6279 l 4344 6279 l 4352 6280 l 4359 6282 l
 4366 6284 l 4373 6287 l 4380 6290 l 4387 6294 l 4394 6300 l
 4401 6306 l 4408 6312 l 4414 6319 l 4420 6326 l 4426 6334 l
 4432 6343 l 4437 6353 l 4441 6363 l 4444 6373 l 4445 6380 l
 4446 6388 l 4447 6397 l 4447 6407 l 4446 6417 l 4445 6426 l
 4444 6435 l 4443 6444 l 4441 6452 l 4439 6461 l 4436 6470 l
 4433 6479 l 4430 6489 l 4426 6497 l 4422 6505 l 4418 6513 l
 4413 6519 l 4408 6526 l 4401 6533 l 4395 6540 l 4387 6546 l
 4380 6551 l 4373 6554 l 4366 6558 l 4357 6560 l 4346 6562 l
 4336 6562 l 4325 6561 l 4315 6559 l 4306 6557 l 4297 6554 l
 4288 6550 l 4279 6545 l 4271 6541 l 4263 6536 l 4257 6531 l
 4250 6526 l 4245 6521 l 4239 6516 l 4234 6510 l 4230 6504 l
 4227 6499 l 4224 6492 l 4221 6486 l 4219 6478 l 4218 6470 l
 4217 6462 l 4217 6454 l 4216 6446 l 4217 6437 l 4217 6428 l
 4218 6418 l 4220 6409 l 4221 6402 l 4223 6394 l 4224 6386 l
 4227 6378 l 4230 6370 l 4234 6361 l 4238 6354 l 4242 6347 l
 4246 6341 l 4251 6333 l 4257 6326 l 4263 6319 l 4269 6312 l
 4275 6306 l
 cp gs col7 1.00 shd ef gr gs col0 s gr 
% Polyline
30.000 slw
n 3248 6546 m 3249 6546 l 3254 6546 l 3265 6547 l 3280 6548 l 3296 6550 l
 3312 6552 l 3326 6553 l 3338 6555 l 3349 6557 l 3359 6560 l
 3369 6562 l 3380 6566 l 3392 6570 l 3406 6576 l 3422 6582 l
 3438 6589 l 3453 6596 l 3464 6600 l 3469 6603 l
 3470 6603 l gs col3 s gr 
% Polyline
n 3440 6504 m 3441 6504 l 3445 6504 l 3456 6504 l 3470 6504 l 3485 6504 l
 3500 6505 l 3513 6505 l 3525 6506 l 3535 6507 l 3545 6508 l
 3555 6510 l 3565 6512 l 3577 6515 l 3590 6518 l 3606 6523 l
 3622 6528 l 3637 6532 l 3647 6535 l 3652 6537 l
 3653 6537 l gs col3 s gr 
% Polyline
n 3560 6402 m 3561 6402 l 3566 6403 l 3578 6404 l 3597 6405 l 3620 6407 l
 3644 6409 l 3666 6411 l 3686 6413 l 3704 6415 l 3720 6417 l
 3734 6419 l 3747 6421 l 3760 6423 l 3774 6425 l 3787 6428 l
 3803 6431 l 3819 6434 l 3838 6439 l 3857 6443 l 3875 6447 l
 3890 6451 l 3899 6453 l 3903 6454 l
 3904 6454 l gs col3 s gr 
% Polyline
n 2861 6429 m 2863 6429 l 2866 6430 l 2872 6431 l 2881 6432 l 2887 6433 l
 2894 6434 l 2902 6435 l 2912 6437 l 2923 6439 l 2935 6442 l
 2947 6444 l 2959 6447 l 2971 6450 l 2983 6454 l 2993 6457 l
 3004 6460 l 3016 6464 l 3029 6469 l 3044 6474 l 3060 6480 l
 3078 6487 l 3095 6493 l 3109 6499 l 3117 6502 l 3121 6504 l

 3122 6504 l gs col3 s gr 
% Polyline
n 2594 6492 m 2595 6492 l 2600 6492 l 2611 6493 l 2628 6493 l 2649 6494 l
 2671 6495 l 2692 6497 l 2712 6498 l 2729 6499 l 2745 6501 l
 2759 6502 l 2774 6504 l 2786 6506 l 2799 6508 l 2813 6511 l
 2828 6514 l 2845 6517 l 2864 6521 l 2884 6526 l 2906 6531 l
 2927 6536 l 2945 6540 l 2959 6543 l 2968 6545 l 2971 6546 l

 2972 6546 l gs col3 s gr 
% Polyline
n 3023 6360 m 3024 6360 l 3028 6361 l 3037 6362 l 3052 6365 l 3070 6368 l
 3089 6371 l 3107 6374 l 3123 6377 l 3138 6380 l 3151 6383 l
 3163 6385 l 3175 6388 l 3187 6391 l 3200 6395 l 3213 6399 l
 3228 6403 l 3246 6409 l 3265 6415 l 3285 6421 l 3304 6428 l
 3320 6433 l 3330 6436 l 3334 6438 l
 3335 6438 l gs col3 s gr 
$F2psEnd
rs
